<?xml version="1.0" encoding="UTF-8"?>
<svg width="55px" height="55px" viewBox="0 0 55 55" version="1.1" xmlns="http://www.w3.org/2000/svg" xmlns:xlink="http://www.w3.org/1999/xlink">
    <!-- Generator: Sketch 50.2 (55047) - http://www.bohemiancoding.com/sketch -->
    <title>Pinnacle-Delivery</title>
    <desc>Created with Sketch.</desc>
    <defs>
        <linearGradient x1="0.25781251%" y1="49.7500002%" x2="101.257813%" y2="49.7500002%" id="linearGradient-1">
            <stop stop-color="#FF0000" offset="0%"></stop>
            <stop stop-color="#F1FF43" offset="25.9505961%"></stop>
            <stop stop-color="#53E2FD" offset="50.8218931%"></stop>
            <stop stop-color="#8D89EF" offset="75.4690765%"></stop>
            <stop stop-color="#EC51E6" offset="100%"></stop>
        </linearGradient>
    </defs>
    <g id="Pinnacle-Delivery" stroke="none" stroke-width="1" fill="none" fill-rule="evenodd">
        <g transform="translate(3.000000, 12.000000)" fill="url(#linearGradient-1)" fill-rule="nonzero" id="Shape" stroke="url(#linearGradient-1)">
            <path d="M40.0600692,24.1290323 C38.8627571,24.1290323 37.7253105,24.5922939 36.8672368,25.4301075 C36.0091631,26.2777778 35.5302382,27.3817204 35.5302382,28.5645161 C35.5302382,29.7473118 35.9991855,30.8512545 36.8672368,31.6989247 C37.7352881,32.5367384 38.8627571,33 40.0600692,33 C42.5145592,33 44.5100794,31.0089606 44.5100794,28.5645161 C44.5100794,26.1200717 42.5145592,24.1290323 40.0600692,24.1290323 Z M40.0600692,31.0286738 C38.6831603,31.0286738 37.5257585,29.9050179 37.5257585,28.5645161 C37.5257585,27.2240143 38.6831603,26.1003584 40.0600692,26.1003584 C41.417023,26.1003584 42.5145592,27.2043011 42.5145592,28.5645161 C42.5145592,29.9247312 41.417023,31.0286738 40.0600692,31.0286738 Z M41.217471,9.35394265 C41.0378742,9.18637993 40.7984117,9.09767025 40.5489717,9.09767025 L35.4304622,9.09767025 C34.8816942,9.09767025 34.4327021,9.54121864 34.4327021,10.0833333 L34.4327021,18.1657706 C34.4327021,18.7078853 34.8816942,19.1514337 35.4304622,19.1514337 L43.5522297,19.1514337 C44.1009978,19.1514337 44.5499898,18.7078853 44.5499898,18.1657706 L44.5499898,12.7544803 C44.5499898,12.4784946 44.4302586,12.2123656 44.220729,12.0250896 L41.217471,9.35394265 Z M42.5544696,17.1801075 L36.4282224,17.1801075 L36.4282224,11.0591398 L40.1598452,11.0591398 L42.5544696,13.188172 L42.5544696,17.1801075 Z M15.6947668,24.1290323 C14.4974547,24.1290323 13.3600081,24.5922939 12.5019344,25.4301075 C11.6438607,26.2777778 11.1649359,27.3817204 11.1649359,28.5645161 C11.1649359,29.7473118 11.6338831,30.8512545 12.5019344,31.6989247 C13.3699857,32.5367384 14.4974547,33 15.6947668,33 C18.1492568,33 20.144777,31.0089606 20.144777,28.5645161 C20.144777,26.1200717 18.1492568,24.1290323 15.6947668,24.1290323 Z M15.6947668,31.0286738 C14.3178579,31.0286738 13.1604561,29.9050179 13.1604561,28.5645161 C13.1604561,27.2240143 14.3178579,26.1003584 15.6947668,26.1003584 C17.0517206,26.1003584 18.1492568,27.2043011 18.1492568,28.5645161 C18.1492568,29.9247312 17.0517206,31.0286738 15.6947668,31.0286738 Z M9.03970678,25.3413978 L7.03420892,25.3413978 L7.03420892,22.7195341 C7.03420892,22.1774194 6.58521686,21.733871 6.03644879,21.733871 C5.48768072,21.733871 5.03868866,22.1774194 5.03868866,22.7195341 L5.03868866,26.3270609 C5.03868866,26.8691756 5.48768072,27.312724 6.03644879,27.312724 L9.03970678,27.312724 C9.58847485,27.312724 10.0374669,26.8691756 10.0374669,26.3270609 C10.0374669,25.7849462 9.58847485,25.3413978 9.03970678,25.3413978 Z M14.0983506,19.9695341 C14.0983506,19.4274194 13.6493586,18.983871 13.1005905,18.983871 L0.99776013,18.983871 C0.448992059,18.983871 0,19.4274194 0,19.9695341 C0,20.5116487 0.448992059,20.9551971 0.99776013,20.9551971 L13.1005905,20.9551971 C13.6493586,20.9551971 14.0983506,20.5215054 14.0983506,19.9695341 Z M3.02321319,16.4112903 L15.1260436,16.4802867 C15.6748116,16.4802867 16.1238037,16.046595 16.1337813,15.5044803 C16.1437589,14.952509 15.6947668,14.5089606 15.1459988,14.5089606 L3.0431684,14.4399642 C3.0331908,14.4399642 3.0331908,14.4399642 3.0331908,14.4399642 C2.48442272,14.4399642 2.03543067,14.8736559 2.03543067,15.4157706 C2.02545306,15.9677419 2.47444512,16.4112903 3.02321319,16.4112903 Z M5.05864386,11.9363799 L17.1614742,11.9363799 C17.7102423,11.9363799 18.1592344,11.4928315 18.1592344,10.9507168 C18.1592344,10.4086022 17.7102423,9.96505376 17.1614742,9.96505376 L5.05864386,9.96505376 C4.50987579,9.96505376 4.06088373,10.4086022 4.06088373,10.9507168 C4.06088373,11.4928315 4.50987579,11.9363799 5.05864386,11.9363799 Z M48.6308288,10.6057348 L41.4868662,4.76075269 C41.3072694,4.61290323 41.0877622,4.53405018 40.8482997,4.53405018 L32.4471594,4.53405018 L32.4471594,0.985663082 C32.4471594,0.443548387 31.9981674,0 31.4493993,0 L6.03644879,0 C5.48768072,0 5.03868866,0.443548387 5.03868866,0.985663082 L5.03868866,8.20071685 C5.03868866,8.74283154 5.48768072,9.18637993 6.03644879,9.18637993 C6.58521686,9.18637993 7.03420892,8.74283154 7.03420892,8.20071685 L7.03420892,1.97132616 L30.4616168,1.97132616 L30.4616168,25.3413978 L22.2799837,25.3413978 C21.7312156,25.3413978 21.2822236,25.7849462 21.2822236,26.3270609 C21.2822236,26.8691756 21.7312156,27.312724 22.2799837,27.312724 L34.4626349,27.312724 C35.011403,27.312724 35.460395,26.8691756 35.460395,26.3270609 C35.460395,25.7849462 35.011403,25.3413978 34.4626349,25.3413978 L32.457137,25.3413978 L32.457137,6.50537634 L40.4990837,6.50537634 L47.0044797,11.827957 L46.9346365,25.3216846 L45.896966,25.3216846 C45.3481979,25.3216846 44.8992059,25.765233 44.8992059,26.3073477 C44.8992059,26.8494624 45.3481979,27.2930108 45.896966,27.2930108 L47.9224191,27.2930108 C48.4711871,27.2930108 48.9201792,26.859319 48.9201792,26.3172043 L49,11.374552 C48.9900224,11.078853 48.8603136,10.7930108 48.6308288,10.6057348 Z"></path>
        </g>
    </g>
</svg>