<?xml version="1.0" encoding="UTF-8"?>
<svg width="220px" height="64px" viewBox="0 0 220 64" version="1.1" xmlns="http://www.w3.org/2000/svg" xmlns:xlink="http://www.w3.org/1999/xlink">
    <!-- Generator: Sketch 42 (36781) - http://www.bohemiancoding.com/sketch -->
    <title>Brand_Rq_White</title>
    <desc>Created with Sketch.</desc>
    <defs></defs>
    <g id="DesktopViews" stroke="none" stroke-width="1" fill="none" fill-rule="evenodd">
        <g id="Press-&amp;-Media" transform="translate(-577.000000, -731.000000)">
            <g id="Brand_Rq_White" transform="translate(577.000000, 731.000000)">
                <polygon id="Fill-1" fill="#FFFFFF" points="0 64 220 64 220 0 0 0"></polygon>
                <g id="Group-14" transform="translate(22.000000, 16.467836)" fill="#000000">
                    <path d="M39.5261695,30.9693006 C37.7900339,30.9693006 36.3242373,30.6653942 35.1709153,30.0673123 C34.0075254,29.4636164 33.103661,28.620014 32.4857966,27.5600842 C31.8746441,26.5125053 31.4972881,25.2789146 31.3630508,23.8929965 C31.2299322,22.5250433 31.3011525,21.0410667 31.5748475,19.4829848 L34.1111864,5.10020117 C34.1406441,4.93402573 34.2838305,4.8655345 34.4527458,4.8655345 L42.4793898,4.8655345 C42.5819322,4.8655345 42.6788814,4.85804912 42.7445085,4.93701988 C42.8108814,5.01599064 42.8384746,5.09309006 42.8205763,5.1952655 L40.5202712,18.2737216 C40.2510508,19.8078503 40.3677627,20.9673357 40.8681695,21.7330901 C41.3488136,22.4722713 42.3007797,22.8431719 43.6987119,22.8431719 C44.9564407,22.8431719 46.0329492,22.5250433 46.8984068,21.9007626 C47.7668475,21.2734877 48.4514576,20.6114058 48.9354576,19.9347275 L51.5508475,5.10057544 C51.5795593,4.93402573 51.7234915,4.8655345 51.891661,4.8655345 L59.918678,4.8655345 C60.0208475,4.8655345 60.1185424,4.85804912 60.1837966,4.93701988 C60.2494237,5.01599064 60.2777627,5.09309006 60.2598644,5.1952655 L55.8538983,30.1522713 C55.8248136,30.3188211 55.6805085,30.3158269 55.5127119,30.3158269 L47.4860678,30.3158269 C47.3831525,30.3158269 47.2865763,30.3809497 47.2205763,30.3027275 C47.1545763,30.2237567 47.1266102,30.1747275 47.1448814,30.0733006 L47.4897966,28.1327158 C46.5158305,28.9130667 45.4490169,29.5631719 44.3068814,30.041862 C42.8589831,30.648552 41.2507458,30.9693006 39.5261695,30.9693006" id="Fill-2"></path>
                    <path d="M78.971461,30.3157895 C78.8689186,30.3157895 78.7719695,30.3809123 78.7063424,30.3026901 C78.6399695,30.2237193 78.6120034,30.1746901 78.6302746,30.0736374 L80.9302068,17.0090292 C81.1994271,15.4775205 81.0823424,14.3251462 80.5834271,13.5575205 C80.1009186,12.8187135 79.1489525,12.450807 77.7517661,12.450807 C77.1249525,12.450807 76.5428847,12.5443743 76.0215966,12.7229006 C75.4917322,12.9044211 74.9995288,13.1443275 74.5576644,13.4310175 C74.1113254,13.7214503 73.7097322,14.0455673 73.3618339,14.3928889 C73.0336983,14.7214971 72.7491898,15.0493567 72.5146475,15.3667368 L69.9003763,30.138386 C69.8709186,30.3053099 69.7273593,30.3157895 69.5588169,30.3157895 L61.5314271,30.3157895 C61.4292576,30.3157895 61.3319356,30.3809123 61.2666814,30.3026901 C61.2003085,30.2237193 61.1730881,30.1746901 61.1902407,30.0736374 L65.5973254,5.07284211 C65.6264102,4.90591813 65.7699695,4.86549708 65.9385119,4.86549708 L73.9651559,4.86549708 C74.0676983,4.86549708 74.1646475,4.8580117 74.2302746,4.93698246 C74.2966475,5.01595322 74.3238678,5.09305263 74.3063424,5.19522807 L73.9603085,7.15003509 C74.9346475,6.37043275 76.0018339,5.7285614 77.1435966,5.24949708 C78.5892576,4.64280702 80.1978678,4.3314152 81.9246814,4.3314152 C83.6596983,4.3314152 85.1247492,4.63419883 86.2799356,5.2322807 C87.4429525,5.83560234 88.3460712,6.6777076 88.9650542,7.73876023 C89.5750881,8.78446784 89.9524441,10.0169357 90.0878,11.4043509 C90.2205458,12.7734269 90.1493254,14.2574035 89.8752576,15.8154854 L87.3389186,30.1387602 C87.3098339,30.3053099 87.1666475,30.3157895 86.9981051,30.3157895 L78.971461,30.3157895 Z" id="Fill-4"></path>
                    <path d="M110.171153,30.3157895 C110.06861,30.3157895 109.971661,30.3809123 109.906034,30.3026901 C109.839661,30.2237193 109.812068,30.1746901 109.829966,30.0736374 L112.129898,17.0090292 C112.399119,15.4767719 112.282034,14.3251462 111.782746,13.5575205 C111.30061,12.8187135 110.347898,12.450807 108.951831,12.450807 C108.325017,12.450807 107.742576,12.5443743 107.220915,12.7229006 C106.690678,12.9044211 106.198475,13.1447018 105.757729,13.4310175 C105.311763,13.7214503 104.909797,14.0448187 104.561898,14.3928889 C104.232644,14.7229942 103.948136,15.0508538 103.714712,15.3667368 L101.099695,30.138386 C101.07061,30.3053099 100.926678,30.3157895 100.758136,30.3157895 L92.7314915,30.3157895 C92.6289492,30.3157895 92.5316271,30.3809123 92.4667458,30.3026901 C92.4,30.2237193 92.3727797,30.1746901 92.3899322,30.0736374 L96.7962712,5.07284211 C96.8257288,4.90591813 96.969661,4.86549708 97.1374576,4.86549708 L105.164475,4.86549708 C105.26739,4.86549708 105.363966,4.8580117 105.429966,4.93698246 C105.495966,5.01595322 105.523932,5.09305263 105.505661,5.19522807 L105.160373,7.15003509 C106.134339,6.37043275 107.201153,5.7285614 108.343661,5.24949708 C109.788949,4.64280702 111.396814,4.3314152 113.124,4.3314152 C114.859763,4.3314152 116.324814,4.63419883 117.478881,5.2322807 C118.642271,5.83560234 119.546136,6.6777076 120.165119,7.73876023 C120.77478,8.78446784 121.152136,10.0169357 121.287492,11.4043509 C121.420237,12.7734269 121.348644,14.2577778 121.074576,15.8154854 L118.538983,30.1387602 C118.509898,30.3053099 118.366339,30.3157895 118.197797,30.3157895 L110.171153,30.3157895 Z" id="Fill-6"></path>
                    <path d="M142.479644,14.2222222 L142.530356,13.9501287 C142.691441,13.0335439 142.519169,12.3231813 142.003847,11.762152 C141.486288,11.2 140.519407,10.918924 139.130797,10.918924 C137.719068,10.918924 136.532186,11.2748538 135.60222,12.0058012 C134.803136,12.6323275 134.205407,13.0994152 133.820966,14.2222222 L142.479644,14.2222222 Z M136.044458,31.2087953 C133.651305,31.2087953 131.608288,30.8603509 129.971712,30.1746901 C128.321339,29.4826667 127.00022,28.5114386 126.045271,27.2868304 C125.089576,26.0625965 124.468356,24.6048187 124.200627,22.9557895 C123.93439,21.3292164 123.967576,19.5480702 124.299068,17.6602573 C124.63578,15.7417544 125.28161,13.9370292 126.217542,12.2962339 C127.152729,10.6565614 128.326186,9.20701754 129.70622,7.98877193 C131.08961,6.76640936 132.697847,5.80079532 134.485814,5.11850292 C136.273407,4.43583626 138.215373,4.08926316 140.256153,4.08926316 C142.204085,4.08926316 143.872356,4.3725848 145.214729,4.93099415 C146.569407,5.49501754 147.656729,6.28884211 148.445373,7.29038596 C149.231407,8.2885614 149.757542,9.46039766 150.007,10.7737076 C150.25422,12.0742924 150.247881,13.4800468 149.989102,14.9516725 C149.92161,15.3371696 149.831373,15.7604678 149.713169,16.2443977 C149.596458,16.7219649 149.474525,17.1860585 149.350729,17.6239532 C149.225441,18.0685848 149.093068,18.4941287 148.959203,18.8886082 C148.820119,19.2928187 148.701169,19.6906667 148.594153,19.9212164 C148.537847,20.0447251 148.414424,20.2105263 148.280186,20.2105263 L132.627746,20.2105263 C132.685915,21.3333333 133.075576,22.2944561 133.813508,23.0283977 C134.609983,23.8203509 135.897915,24.1789006 137.642254,24.1789006 C138.935034,24.1789006 140.282627,23.9045614 141.648864,23.4097778 C143.028153,22.9105029 144.169542,22.3633216 145.044322,21.8026667 C145.100627,21.7663626 145.165508,21.7427836 145.231136,21.7427836 C145.268424,21.7427836 145.304593,21.7454035 145.34039,21.7577544 C145.439203,21.7906901 145.517881,21.8659181 145.555169,21.9636023 L147.573576,27.3332398 C147.629136,27.4814503 147.577678,27.6491228 147.449034,27.7404444 C145.932898,28.8130994 144.177746,29.6679298 142.233169,30.281731 C140.284119,30.8974035 138.202322,31.2087953 136.044458,31.2087953 L136.044458,31.2087953 Z" id="Fill-8"></path>
                    <path d="M151.642197,30.3157895 C151.539281,30.3157895 151.442332,30.3809123 151.376332,30.3026901 C151.310705,30.2237193 151.282739,30.1746901 151.30101,30.0736374 L155.706976,5.07284211 C155.736061,4.90591813 155.879993,4.86549708 156.048163,4.86549708 L164.075553,4.86549708 C164.177722,4.86549708 164.274671,4.8580117 164.340671,4.93698246 C164.406298,5.01595322 164.434637,5.09305263 164.416366,5.19522807 L163.899925,8.11976608 C164.679993,7.17473684 165.530908,6.36594152 166.442603,5.7177076 C167.733892,4.80037427 169.24518,4.3314152 170.935824,4.3314152 C172.816264,4.3314152 174.470739,4.83667836 175.854875,5.83447953 C175.994705,5.93590643 176.039451,6.12453801 175.958163,6.27836257 L172.300569,13.2311579 C172.238298,13.3486784 172.117485,13.4171696 171.993688,13.4171696 C171.940366,13.4171696 171.886298,13.4044444 171.835214,13.3786199 C171.359417,13.1334737 170.785925,12.9163977 170.130773,12.7322573 C169.480841,12.5499883 168.782434,12.4575439 168.053451,12.4575439 C166.798705,12.4575439 165.674095,12.8288187 164.712061,13.5616374 C163.742942,14.2993216 162.986366,15.2185263 162.462468,16.2938012 L160.0104,30.1387602 C159.981688,30.3049357 159.837383,30.3157895 159.669586,30.3157895 L151.642197,30.3157895 Z" id="Fill-10"></path>
                    <path d="M16.7578102,13.8479532 C17.8652678,13.8479532 18.7695051,13.6368655 19.5223525,12.9979883 C20.2755729,12.3583626 20.7323525,11.579883 20.9184203,10.5169591 C21.1056068,9.44879532 20.950861,8.80355556 20.4452339,8.20884211 C19.9377424,7.61225731 19.1636407,7.48538012 18.0789288,7.48538012 L11.9532339,7.48538012 L10.7547932,13.8479532 L16.7578102,13.8479532 Z M19.0722847,31.0643275 C18.9540814,31.0643275 18.8437085,30.9793684 18.7803186,30.8786901 L12.0393695,20.2105263 L9.65031864,20.2105263 L7.80567458,30.7529357 C7.77621695,30.9194854 7.63228475,31.0643275 7.46448814,31.0643275 L0.372657627,31.0643275 C0.270115254,31.0643275 0.17279322,31.0635789 0.107538983,30.9838596 C0.0411661017,30.9056374 0.0135728814,30.8251696 0.0314711864,30.7237427 L5.37709831,0.257871345 C5.40692881,0.0916959064 5.55048814,0 5.71903051,0 L19.3534373,0 C21.0403525,0 22.5661831,0.190877193 23.8880475,0.60219883 C25.2304203,1.02175439 26.3483186,1.6688655 27.2085559,2.5442807 C28.0740136,3.42269006 28.6709966,4.53688889 28.9827254,5.86479532 C29.2892339,7.17698246 29.2907254,8.72383626 28.9849627,10.4653099 C28.7806237,11.6304094 28.4110983,12.7341287 27.8868271,13.7476491 C27.3636746,14.7585497 26.711878,15.6751345 25.9519458,16.4727018 C25.1912678,17.2695205 24.3243186,17.9679064 23.3742169,18.5480234 C22.5594712,19.0458012 21.692522,19.4470175 20.7935051,19.7441871 L27.1667932,29.1753918 C27.2175051,29.2502456 27.2368949,29.3419415 27.2216068,29.4306433 L26.9699119,30.8214269 C26.9408271,30.9879766 26.796522,31.0643275 26.6283525,31.0643275 L19.0722847,31.0643275 Z" id="Fill-12"></path>
                </g>
            </g>
        </g>
    </g>
</svg>