<?xml version="1.0" encoding="UTF-8"?>
<svg width="9px" height="5px" viewBox="0 0 9 5" version="1.1" xmlns="http://www.w3.org/2000/svg" xmlns:xlink="http://www.w3.org/1999/xlink">
    <!-- Generator: Sketch 43.2 (39069) - http://www.bohemiancoding.com/sketch -->
    <title>Checkout_arrowDown</title>
    <desc>Created with Sketch.</desc>
    <defs></defs>
    <g id="Page-1" stroke="none" stroke-width="1" fill="none" fill-rule="evenodd">
        <g id="Login" transform="translate(-299.000000, -70.000000)" fill="#F83E40">
            <polygon id="Checkout_arrowDown" transform="translate(303.500000, 72.500000) scale(1, -1) translate(-303.500000, -72.500000) " points="303.5 70 308 75 299 75"></polygon>
        </g>
    </g>
</svg>