<?xml version="1.0" encoding="UTF-8"?>
<svg width="20px" height="26px" viewBox="0 0 20 26" version="1.1" xmlns="http://www.w3.org/2000/svg" xmlns:xlink="http://www.w3.org/1999/xlink">
    <!-- Generator: Sketch 42 (36781) - http://www.bohemiancoding.com/sketch -->
    <title>Dashboard_User</title>
    <desc>Created with Sketch.</desc>
    <defs></defs>
    <g id="Dispatch" stroke="none" stroke-width="1" fill="none" fill-rule="evenodd">
        <g id="Dispatch_Orders" transform="translate(-1442.000000, -30.000000)" fill-rule="nonzero" fill="#000000">
            <g id="Dashboard_User" transform="translate(1442.000000, 30.000000)">
                <g id="Capa_1">
                    <path d="M17.8321739,18.5852333 L13.6786957,16.5156333 C13.2869565,16.3202 13.0434783,15.9276 13.0434783,15.4908 L13.0434783,14.0257 C13.1430435,13.9043667 13.2478261,13.7661333 13.356087,13.6136 C13.8947826,12.8552667 14.3265217,12.0111333 14.6404348,11.1007 C15.253913,10.8203333 15.6521739,10.2158333 15.6521739,9.53333333 L15.6521739,7.8 C15.6521739,7.3827 15.4956522,6.9784 15.2173913,6.6625 L15.2173913,4.3576 C15.2417391,4.11926667 15.3373913,2.70053333 14.3078261,1.5301 C13.4147826,0.5148 11.9656522,0 10,0 C8.03434783,0 6.58521739,0.5148 5.69217391,1.52966667 C4.6626087,2.7001 4.75826087,4.11926667 4.7826087,4.3576 L4.7826087,6.6625 C4.50434783,6.9784 4.34782609,7.3827 4.34782609,7.8 L4.34782609,9.53333333 C4.34782609,10.0607 4.58826087,10.5525333 4.99869565,10.8805667 C5.39695652,12.4522667 6.23043478,13.6365667 6.52173913,14.0166 L6.52173913,15.4505 C6.52173913,15.8699667 6.29217391,16.2547667 5.92304348,16.4558333 L2.04434783,18.5644333 C0.783043478,19.2504 0,20.5651333 0,21.9968667 L0,23.4 C0,25.4566 6.54130435,26 10,26 C13.4586957,26 20,25.4566 20,23.4 L20,22.0813667 C20,20.5915667 19.1691304,19.2517 17.8321739,18.5852333 Z M19.1304348,23.4 C19.1304348,23.9880333 15.9078261,25.1333333 10,25.1333333 C4.09217391,25.1333333 0.869565217,23.9880333 0.869565217,23.4 L0.869565217,21.9968667 C0.869565217,20.8827667 1.47913043,19.8588 2.46043478,19.3258 L6.33913043,17.2172 C6.98826087,16.8640333 7.39130435,16.1867333 7.39130435,15.4505 L7.39130435,13.7089333 L7.29,13.5884667 C7.27956522,13.5759 6.21391304,12.2910667 5.8073913,10.5269667 L5.76782609,10.3553667 L5.61956522,10.2600333 C5.36782609,10.0979667 5.2173913,9.82626667 5.2173913,9.53333333 L5.2173913,7.8 C5.2173913,7.5569 5.32086957,7.33026667 5.50869565,7.16083333 L5.65217391,7.03213333 L5.65217391,4.33333333 L5.64826087,4.27656667 C5.64695652,4.26486667 5.49913043,3.06366667 6.34608696,2.1008 C7.06652174,1.2818 8.29608696,0.866666667 10,0.866666667 C11.6978261,0.866666667 12.9247826,1.27876667 13.646087,2.09213333 C14.4926087,3.0459 14.3526087,4.26616667 14.3517391,4.27656667 L14.3478261,7.03213333 L14.4913043,7.16126667 C14.6791304,7.33026667 14.7826087,7.5569 14.7826087,7.8 L14.7826087,9.53333333 C14.7826087,9.91163333 14.533913,10.2427 14.1643478,10.3562333 L13.9478261,10.4225333 L13.8782609,10.6370333 C13.5873913,11.5388 13.1730435,12.3716667 12.646087,13.1126667 C12.5169565,13.2951 12.3913043,13.4567333 12.2821739,13.5802333 L12.173913,13.7033 L12.173913,15.4908 C12.173913,16.2578 12.6013043,16.9472333 13.2895652,17.2904333 L17.4430435,19.3600333 C18.483913,19.8787333 19.1304348,20.9213333 19.1304348,22.0813667 L19.1304348,23.4 Z" id="Shape"></path>
                </g>
            </g>
        </g>
    </g>
</svg>