<?xml version="1.0" encoding="UTF-8"?>
<svg width="28px" height="14px" viewBox="0 0 28 14" version="1.1" xmlns="http://www.w3.org/2000/svg" xmlns:xlink="http://www.w3.org/1999/xlink">
    <!-- Generator: Sketch 44.1 (41455) - http://www.bohemiancoding.com/sketch -->
    <title>Hamburger</title>
    <desc>Created with Sketch.</desc>
    <defs></defs>
    <g id="Page-1" stroke="none" stroke-width="1" fill="none" fill-rule="evenodd">
        <g id="Hamburger" fill-rule="nonzero" fill="#4A4A4A">
            <path d="M1.4544915,2 L26.4544915,2 C27.0067762,2 27.4544915,1.55228475 27.4544915,1 C27.4544915,0.44771525 27.0067762,0 26.4544915,0 L1.4544915,0 C0.902206747,0 0.454491497,0.44771525 0.454491497,1 C0.454491497,1.55228475 0.902206747,2 1.4544915,2 Z" id="Line"></path>
            <path d="M1.4544915,8 L13,8 C13.5522847,8 14,7.55228475 14,7 C14,6.44771525 13.5522847,6 13,6 L1.4544915,6 C0.902206747,6 0.454491497,6.44771525 0.454491497,7 C0.454491497,7.55228475 0.902206747,8 1.4544915,8 Z" id="Line-Copy-4"></path>
            <path d="M1.4544915,14 L20,14 C20.5522847,14 21,13.5522847 21,13 C21,12.4477153 20.5522847,12 20,12 L1.4544915,12 C0.902206747,12 0.454491497,12.4477153 0.454491497,13 C0.454491497,13.5522847 0.902206747,14 1.4544915,14 Z" id="Line-Copy-5"></path>
        </g>
    </g>
</svg>