<?xml version="1.0" encoding="UTF-8" standalone="no"?>
<svg width="42px" height="56px" viewBox="0 0 42 56" version="1.1" xmlns="http://www.w3.org/2000/svg" xmlns:xlink="http://www.w3.org/1999/xlink">
    <!-- Generator: Sketch 41.2 (35397) - http://www.bohemiancoding.com/sketch -->
    <title>Home_Shop</title>
    <desc>Created with Sketch.</desc>
    <defs></defs>
    <g id="Page-1" stroke="none" stroke-width="1" fill="none" fill-rule="evenodd">
        <g id="Landing2" transform="translate(-627.000000, -1192.000000)" fill="#AEAEAE">
            <g id="Home_Shop" transform="translate(627.000000, 1192.000000)">
                <g id="Capa_1">
                    <g id="Group">
                        <g transform="translate(4.300000, 17.620202)" id="Shape">
                            <path d="M22.8505739,37.4464646 L7.35038261,37.4464646 C3.31716957,37.4464646 0.0327173913,34.1908566 0.0327173913,30.1893455 L0.0327173913,1.17755556 C0.0327173913,0.71699798 0.409621739,0.343212121 0.874021739,0.343212121 L29.1889609,0.343212121 C29.6533609,0.343212121 30.1665565,0.71699798 30.1665565,1.17755556 L30.1665565,30.1910141 C30.1665565,34.1908566 26.883787,37.4464646 22.8505739,37.4464646 Z M1.71532609,2.01189899 L1.71532609,30.1910141 C1.71532609,33.2730788 4.24260435,35.7794465 7.35038261,35.7794465 L22.8505739,35.7794465 C25.9583522,35.7794465 28.4856304,33.2730788 28.4856304,30.1910141 L28.4856304,2.01189899 L1.71532609,2.01189899 Z"></path>
                            <path d="M32.8789217,25.054796 L29.3269348,25.054796 C28.8625348,25.054796 28.4856304,24.6810101 28.4856304,24.2204525 C28.4856304,23.7598949 28.8625348,23.3861091 29.3269348,23.3861091 L32.8789217,23.3861091 C34.5699435,23.3861091 35.9463174,22.0211232 35.9463174,20.3440929 L35.9463174,12.5129455 C35.9463174,10.8342465 34.5699435,9.46926061 32.8789217,9.46926061 L29.3269348,9.46926061 C28.8625348,9.46926061 28.4856304,9.09547475 28.4856304,8.63491717 C28.4856304,8.1743596 28.8625348,7.80057374 29.3269348,7.80057374 L32.8789217,7.80057374 C35.4987435,7.80057374 37.6289261,9.9148 37.6289261,12.5129455 L37.6289261,20.3440929 C37.6289261,22.9422384 35.4970609,25.054796 32.8789217,25.054796 Z"></path>
                            <g transform="translate(6.730435, 7.410101)">
                                <path d="M1.38048696,22.302 C0.916086957,22.302 0.539182609,21.9282141 0.539182609,21.4676566 L0.539182609,1.15306263 C0.539182609,0.692505051 0.916086957,0.318719192 1.38048696,0.318719192 C1.84488696,0.318719192 2.2217913,0.692505051 2.2217913,1.15306263 L2.2217913,21.4676566 C2.2217913,21.9298828 1.84488696,22.302 1.38048696,22.302 Z"></path>
                                <path d="M15.3579174,22.302 C14.8935174,22.302 14.516613,21.9282141 14.516613,21.4676566 L14.516613,1.15306263 C14.516613,0.692505051 14.8935174,0.318719192 15.3579174,0.318719192 C15.8223174,0.318719192 16.1992217,0.692505051 16.1992217,1.15306263 L16.1992217,21.4676566 C16.1992217,21.9298828 15.8223174,22.302 15.3579174,22.302 Z"></path>
                                <path d="M8.36836087,22.302 C7.90396087,22.302 7.52705652,21.9282141 7.52705652,21.4676566 L7.52705652,1.15306263 C7.52705652,0.692505051 7.90396087,0.318719192 8.36836087,0.318719192 C8.83276087,0.318719192 9.20966522,0.692505051 9.20966522,1.15306263 L9.20966522,21.4676566 C9.20966522,21.9298828 8.83444348,22.302 8.36836087,22.302 Z"></path>
                            </g>
                        </g>
                        <path d="M33.1440261,19.632101 L5.65524783,19.632101 C2.6114087,19.632101 0.136291304,17.1757939 0.136291304,14.1588081 C0.136291304,11.1418222 2.6130913,8.68551515 5.65524783,8.68551515 L6.0573913,8.68551515 C6.62274783,3.75287677 10.7905696,0 15.8804609,0 C18.9007435,0 21.7393043,1.36665455 23.6137304,3.69280404 C24.4331609,3.34738586 25.2845609,3.17217374 26.1511043,3.17217374 C29.4355565,3.17217374 32.1849391,5.53670303 32.7284217,8.68384646 L33.1440261,8.68384646 C36.1878652,8.68384646 38.6629826,11.1401535 38.6629826,14.1571394 C38.6629826,17.1741253 36.1878652,19.632101 33.1440261,19.632101 Z M5.65524783,10.3525333 C3.53852609,10.3525333 1.8189,12.0579313 1.8189,14.1571394 C1.8189,16.2563475 3.53852609,17.9617455 5.65524783,17.9617455 L33.1440261,17.9617455 C35.2607478,17.9617455 36.9803739,16.2563475 36.9803739,14.1571394 C36.9803739,12.0579313 35.2607478,10.3525333 33.1440261,10.3525333 L31.9779783,10.3525333 C31.5287217,10.3525333 31.161913,10.0054465 31.1383565,9.55990707 C31.0003826,6.9133697 28.8096261,4.84086061 26.1511043,4.84086061 C25.3350391,4.84086061 24.5290696,5.05445253 23.7567522,5.47496162 C23.3815304,5.68187879 22.901987,5.56840808 22.6596913,5.21631515 C21.1234696,2.99529293 18.5894609,1.66868687 15.8804609,1.66868687 C11.4282783,1.66868687 7.82749565,5.12787475 7.6811087,9.54655758 C7.66596522,9.99710303 7.2941087,10.3525333 6.83980435,10.3525333 L5.65524783,10.3525333 Z" id="Shape"></path>
                    </g>
                </g>
            </g>
        </g>
    </g>
</svg>