<?xml version="1.0" encoding="UTF-8"?>
<svg width="162px" height="60px" viewBox="0 0 162 60" version="1.1" xmlns="http://www.w3.org/2000/svg" xmlns:xlink="http://www.w3.org/1999/xlink">
    <!-- Generator: Sketch 42 (36781) - http://www.bohemiancoding.com/sketch -->
    <title>Logo_Dispatch</title>
    <desc>Created with Sketch.</desc>
    <defs></defs>
    <g id="Dispatch" stroke="none" stroke-width="1" fill="none" fill-rule="evenodd">
        <g id="Dispatch_Orders" transform="translate(-13.000000, -12.000000)">
            <g id="Logo_Dispatch" transform="translate(13.000000, 12.000000)">
                <path d="M98.03,52.52 L98.03,57.212 L99.29,57.212 C100.454,57.212 101.042,56.096 101.042,54.884 C101.042,53.66 100.454,52.52 99.29,52.52 L98.03,52.52 Z M96.014,59 L96.014,50.732 L99.29,50.732 C101.678,50.732 103.046,52.532 103.046,54.884 C103.046,57.224 101.678,59 99.29,59 L96.014,59 Z M105.274,59 L107.278,59 L107.278,50.732 L105.274,50.732 L105.274,59 Z M109.482,56.54 C109.482,58.1 110.682,59.108 112.53,59.108 C113.922,59.108 115.59,58.412 115.59,56.588 C115.59,56 115.47,54.74 113.298,54.068 L112.35,53.768 C111.63,53.552 111.582,53.252 111.582,53.096 C111.582,52.7 111.918,52.436 112.458,52.436 C113.07,52.436 113.322,52.76 113.322,53.204 L115.326,53.204 C115.326,51.572 114.114,50.624 112.482,50.624 C110.826,50.624 109.59,51.644 109.59,53.156 C109.59,53.912 109.902,55.088 111.75,55.592 L112.722,55.916 C113.55,56.192 113.55,56.468 113.55,56.6 C113.55,57.116 113.046,57.344 112.53,57.344 C111.834,57.344 111.534,56.984 111.51,56.54 L109.482,56.54 Z M119.762,59 L117.758,59 L117.758,50.732 L121.178,50.732 C123.122,50.732 124.01,52.112 124.01,53.492 C124.01,54.884 123.122,56.24 121.178,56.24 L119.762,56.24 L119.762,59 Z M121.082,52.484 L119.762,52.484 L119.762,54.512 L121.082,54.512 C121.742,54.512 121.982,53.984 121.982,53.492 C121.982,53 121.742,52.484 121.082,52.484 Z M130.714,59 L130.018,57.104 L127.414,57.104 L126.718,59 L124.57,59 L127.618,50.732 L129.802,50.732 L132.838,59 L130.714,59 Z M128.698,52.652 L127.954,55.376 L129.502,55.376 L128.698,52.652 Z M135.318,52.484 L135.318,59 L137.322,59 L137.322,52.484 L139.458,52.484 L139.458,50.732 L133.182,50.732 L133.182,52.484 L135.318,52.484 Z M146.954,56.06 C146.558,56.684 145.874,57.092 145.082,57.092 C143.858,57.092 142.898,56.108 142.898,54.872 C142.898,53.636 143.858,52.64 145.082,52.64 C145.862,52.64 146.558,53.06 146.942,53.684 C146.942,53.684 148.754,52.412 148.61,52.52 C147.854,51.38 146.558,50.624 145.082,50.624 C142.754,50.624 140.87,52.52 140.87,54.872 C140.87,57.2 142.754,59.108 145.082,59.108 C146.558,59.108 147.842,58.352 148.598,57.212 L146.954,56.06 Z M155.146,53.996 L152.626,53.996 L152.626,50.732 L150.622,50.732 L150.622,59 L152.626,59 L152.626,55.784 L155.146,55.784 L155.146,59 L157.186,59 L157.186,50.732 L155.146,50.732 L155.146,53.996 Z" id="DISPATCH" fill="#000000"></path>
                <g id="Page-1">
                    <polygon id="Fill-1" fill="#F93E40" points="0 47 162 47 162 0 0 0"></polygon>
                    <g id="Group-14" transform="translate(16.200000, 12.093567)" fill="#FFFFFF">
                        <path d="M29.2300444,22.7430801 C27.9516173,22.7430801 26.872258,22.5198988 26.0229936,22.0806825 C25.1663156,21.6373433 24.5007427,21.0178228 24.0457698,20.2394368 C23.5957393,19.4701211 23.3178681,18.5642029 23.2190207,17.5464193 C23.1209969,16.5418287 23.173441,15.4520333 23.37498,14.307817 L25.2426478,3.74546023 C25.2643393,3.62342515 25.3697766,3.5731269 25.4941597,3.5731269 L31.4046885,3.5731269 C31.4801969,3.5731269 31.5515868,3.56762982 31.5999122,3.62562398 C31.6487868,3.68361813 31.6691054,3.74023801 31.6559258,3.8152731 L29.9620647,13.4197643 C29.7638207,14.5463901 29.8497631,15.3978871 30.2182444,15.960238 C30.5721732,16.5030743 31.2731664,16.7754544 32.3025529,16.7754544 C33.2286986,16.7754544 34.0214003,16.5418287 34.6586919,16.0833725 C35.29818,15.6227175 35.802302,15.1365012 36.158702,14.6395655 L38.08458,3.74573509 C38.1057224,3.62342515 38.2117088,3.5731269 38.3355427,3.5731269 L44.2463461,3.5731269 C44.32158,3.5731269 44.393519,3.56762982 44.4415698,3.62562398 C44.4898953,3.68361813 44.5107631,3.74023801 44.4975834,3.8152731 L41.2531902,22.1430743 C41.2317732,22.2653842 41.1255122,22.2631854 41.0019529,22.2631854 L35.0914241,22.2631854 C35.015641,22.2631854 34.9445258,22.3110099 34.8959258,22.2535655 C34.8473258,22.1955713 34.8267325,22.1595655 34.8401868,22.0850801 L35.0941698,20.6599632 C34.3769766,21.2330333 33.5914139,21.7104544 32.7503868,22.0619924 C31.6842071,22.5075304 30.4999597,22.7430801 29.2300444,22.7430801" id="Fill-2"></path>
                        <path d="M58.2761227,22.2631579 C58.2006142,22.2631579 58.1292244,22.3109825 58.080899,22.253538 C58.0320244,22.1955439 58.0114312,22.159538 58.0248854,22.0853275 L59.7184719,12.4910058 C59.9167159,11.3663041 59.830499,10.5200292 59.4631159,9.95630409 C59.1078142,9.41374269 58.406821,9.1435614 57.3779837,9.1435614 C56.916421,9.1435614 56.4878075,9.21227485 56.1039498,9.34338012 C55.7137769,9.47668421 55.3513363,9.6528655 55.0259634,9.86340351 C54.6972956,10.0766901 54.4015769,10.3147135 54.1453973,10.5697778 C53.9037702,10.8110994 53.6942685,11.0518713 53.52156,11.2849474 L51.5965058,22.1328772 C51.5748142,22.255462 51.4691024,22.2631579 51.3449939,22.2631579 L45.4339159,22.2631579 C45.358682,22.2631579 45.2870176,22.3109825 45.2389668,22.253538 C45.1900922,22.1955439 45.1700481,22.159538 45.1826786,22.0853275 L48.4278956,3.72536842 C48.4493125,3.60278363 48.5550244,3.57309942 48.6791329,3.57309942 L54.5896617,3.57309942 C54.6651702,3.57309942 54.73656,3.56760234 54.7848854,3.62559649 C54.83376,3.68359064 54.8538041,3.74021053 54.840899,3.81524561 L54.5860922,5.25080702 C55.30356,4.67828655 56.0893973,4.20691228 56.9301498,3.85509942 C57.994682,3.4095614 59.1792041,3.18088304 60.4507668,3.18088304 C61.7283702,3.18088304 62.8071803,3.40323977 63.6578176,3.84245614 C64.514221,4.28552047 65.1792447,4.90394152 65.6350414,5.68315205 C66.0842481,6.45109357 66.3621193,7.35618713 66.4617905,8.37507018 C66.5595397,9.38048538 66.5070956,10.4702807 66.305282,11.6144971 L64.4376142,22.133152 C64.4161973,22.255462 64.31076,22.2631579 64.1866515,22.2631579 L58.2761227,22.2631579 Z" id="Fill-4"></path>
                        <path d="M81.250441,22.2631579 C81.1749325,22.2631579 81.1035427,22.3109825 81.0552173,22.253538 C81.0063427,22.1955439 80.9860241,22.159538 80.9992037,22.0853275 L82.6927902,12.4910058 C82.8910342,11.3657544 82.8048173,10.5200292 82.4371597,9.95630409 C82.0821325,9.41374269 81.3805902,9.1435614 80.3525766,9.1435614 C79.8910139,9.1435614 79.4621258,9.21227485 79.0779936,9.34338012 C78.6875461,9.47668421 78.3251054,9.65314035 78.0005563,9.86340351 C77.6721631,10.0766901 77.3761698,10.3141637 77.1199902,10.5697778 C76.8775393,10.8121988 76.6680376,11.0529708 76.4961529,11.2849474 L74.5705495,22.1328772 C74.5491325,22.255462 74.4431461,22.2631579 74.3190376,22.2631579 L68.4085088,22.2631579 C68.3330003,22.2631579 68.2613359,22.3109825 68.2135597,22.253538 C68.1644105,22.1955439 68.1443664,22.159538 68.1569969,22.0853275 L71.4016647,3.72536842 C71.4233563,3.60278363 71.5293427,3.57309942 71.652902,3.57309942 L77.5637054,3.57309942 C77.6394885,3.57309942 77.7106037,3.56760234 77.7592037,3.62559649 C77.8078037,3.68359064 77.8283969,3.74021053 77.8149427,3.81524561 L77.5606851,5.25080702 C78.2778783,4.67828655 79.063441,4.20691228 79.9047427,3.85509942 C80.9690003,3.4095614 82.1529732,3.18088304 83.4248105,3.18088304 C84.7029631,3.18088304 85.7817732,3.40323977 86.6315868,3.84245614 C87.4882647,4.28552047 88.1538376,4.90394152 88.6096342,5.68315205 C89.0585664,6.45109357 89.3364376,7.35618713 89.4361088,8.37507018 C89.533858,9.38048538 89.4811393,10.4705556 89.2793258,11.6144971 L87.4122071,22.133152 C87.3907902,22.255462 87.2850783,22.2631579 87.1609698,22.2631579 L81.250441,22.2631579 Z" id="Fill-6"></path>
                        <path d="M105.041239,10.4444444 L105.078582,10.2446257 C105.197199,9.57150877 105.070344,9.04983626 104.69088,8.63783041 C104.309768,8.225 103.597792,8.0185848 102.57527,8.0185848 C101.535724,8.0185848 100.661748,8.27997076 99.9769546,8.81676023 C99.3885376,9.2768655 98.9483919,9.61988304 98.6653037,10.4444444 L105.041239,10.4444444 Z M100.302602,22.9189591 C98.5403715,22.9189591 97.0359681,22.6630702 95.8308529,22.159538 C94.6155783,21.6513333 93.6427546,20.9380877 92.9395647,20.0387661 C92.2358258,19.1397193 91.7783817,18.0691637 91.5812359,16.8581579 C91.3851885,15.6636433 91.4096258,14.355614 91.6537241,12.9692515 C91.9016664,11.5603509 92.3772325,10.2350058 93.066419,9.03004678 C93.7550563,7.82591228 94.6191478,6.76140351 95.6353546,5.86675439 C96.6540325,4.96908187 97.83828,4.25995906 99.1548732,3.75890058 C100.471192,3.25756725 101.901185,3.00305263 103.403941,3.00305263 C104.838327,3.00305263 106.066782,3.21111696 107.055256,3.62119883 C108.052792,4.03540351 108.853456,4.61836842 109.434185,5.35387719 C110.012992,6.08691228 110.400419,6.94747953 110.584111,7.91194152 C110.766155,8.86705848 110.761487,9.89940936 110.570931,10.9801345 C110.521233,11.2632339 110.454785,11.5740936 110.367744,11.9294795 C110.281802,12.280193 110.192016,12.6210117 110.100856,12.9425906 C110.008599,13.269117 109.911124,13.5816257 109.812551,13.8713216 C109.710134,14.1681637 109.622544,14.4603333 109.543741,14.6296433 C109.50228,14.720345 109.411395,14.8421053 109.312548,14.8421053 L97.7866597,14.8421053 C97.8294936,15.6666667 98.1164258,16.3724912 98.6598122,16.9114795 C99.2463071,17.4930702 100.194694,17.7563801 101.479161,17.7563801 C102.431117,17.7563801 103.423436,17.5549123 104.429483,17.1915556 C105.445141,16.8249006 106.285619,16.4230643 106.929775,16.0113333 C106.971236,15.9846725 107.019012,15.9673567 107.067338,15.9673567 C107.094795,15.9673567 107.121429,15.9692807 107.147788,15.9783509 C107.220551,16.002538 107.278487,16.0577836 107.305944,16.1295205 L108.792226,20.072848 C108.833138,20.1816901 108.795246,20.3048246 108.700517,20.3718889 C107.58409,21.1596199 106.29166,21.787386 104.859744,22.2381462 C103.424534,22.6902807 101.891575,22.9189591 100.302602,22.9189591 L100.302602,22.9189591 Z" id="Fill-8"></path>
                        <path d="M111.78821,22.2631579 C111.712427,22.2631579 111.641037,22.3109825 111.592437,22.253538 C111.544112,22.1955439 111.523518,22.159538 111.536973,22.0853275 L114.781366,3.72536842 C114.802783,3.60278363 114.908769,3.57309942 115.032603,3.57309942 L120.943681,3.57309942 C121.018915,3.57309942 121.090305,3.56760234 121.138905,3.62559649 C121.18723,3.68359064 121.208098,3.74021053 121.194644,3.81524561 L120.814356,5.96295322 C121.388769,5.26894737 122.015352,4.6749883 122.686691,4.19894152 C123.637549,3.52527485 124.750406,3.18088304 125.995335,3.18088304 C127.380023,3.18088304 128.598318,3.55193567 129.617545,4.28469591 C129.720512,4.35918129 129.753461,4.4977076 129.693603,4.61067251 L127.000284,9.71663158 C126.95443,9.80293567 126.865467,9.85323392 126.774308,9.85323392 C126.735044,9.85323392 126.69523,9.84388889 126.657613,9.82492398 C126.307254,9.64489474 125.884956,9.48547953 125.402525,9.35025146 C124.923939,9.21639766 124.409657,9.14850877 123.872861,9.14850877 C122.948912,9.14850877 122.120789,9.42116374 121.412383,9.95932749 C120.698759,10.5010643 120.141644,11.1761053 119.755864,11.9657602 L117.950251,22.133152 C117.929108,22.2551871 117.822847,22.2631579 117.699288,22.2631579 L111.78821,22.2631579 Z" id="Fill-10"></path>
                        <path d="M12.4642525,10.1695906 C13.2797441,10.1695906 13.9455915,10.0145731 14.499961,9.54539766 C15.0546051,9.07567251 15.390961,8.50397661 15.5279746,7.72339181 C15.6658119,6.93895906 15.5518627,6.46511111 15.1795373,6.02836842 C14.805839,5.59025146 14.2358186,5.49707602 13.4370763,5.49707602 L8.92633729,5.49707602 L8.04384915,10.1695906 L12.4642525,10.1695906 Z M14.1685475,22.8128655 C14.0815068,22.8128655 14.0002322,22.7504737 13.9535542,22.676538 L8.98976441,14.8421053 L7.23055424,14.8421053 L5.87222542,22.5841871 C5.8505339,22.7064971 5.74454746,22.8128655 5.62098814,22.8128655 L0.398822034,22.8128655 C0.323313559,22.8128655 0.251649153,22.8123158 0.203598305,22.7537719 C0.154723729,22.6963275 0.134405085,22.6372339 0.147584746,22.5627485 L4.08391017,0.189374269 C4.10587627,0.0673391813 4.21158814,0 4.33569661,0 L14.375578,0 C15.617761,0 16.7413271,0.140175439 17.7147,0.442239766 C18.7031746,0.750350877 19.5263542,1.2255731 20.1598017,1.86845614 C20.7970932,2.51353801 21.2366898,3.33177778 21.4662356,4.30695906 C21.6919373,5.27059649 21.6930356,6.40656725 21.4678831,7.68546199 C21.3174153,8.54108187 21.0453102,9.35162573 20.6592559,10.0959298 C20.2740254,10.8383099 19.7940661,11.5114269 19.2344797,12.0971404 C18.6743441,12.6823041 18.0359542,13.1951813 17.3363339,13.6212047 C16.7363847,13.9867602 16.0979949,14.2814035 15.4359915,14.4996374 L20.1290492,21.4256784 C20.1663915,21.4806491 20.1806695,21.5479883 20.1694119,21.6131287 L19.9840729,22.6344854 C19.9626559,22.7567953 19.8563949,22.8128655 19.732561,22.8128655 L14.1685475,22.8128655 Z" id="Fill-12"></path>
                    </g>
                </g>
            </g>
        </g>
    </g>
</svg>