<?xml version="1.0" encoding="UTF-8"?>
<svg width="25px" height="25px" viewBox="0 0 25 25" version="1.1" xmlns="http://www.w3.org/2000/svg" xmlns:xlink="http://www.w3.org/1999/xlink">
    <!-- Generator: Sketch 42 (36781) - http://www.bohemiancoding.com/sketch -->
    <title>Notification_Check</title>
    <desc>Created with Sketch.</desc>
    <defs></defs>
    <g id="DesktopViews" stroke="none" stroke-width="1" fill="none" fill-rule="evenodd">
        <g id="Checkout" transform="translate(-497.000000, -574.000000)" fill="#618945">
            <g id="Notification_Check" transform="translate(497.000000, 574.000000)">
                <g id="Capa_1">
                    <g id="Group">
                        <path d="M12.4664835,24.932967 C5.59271978,24.932967 0,19.340728 0,12.4665522 C0,5.59230769 5.59271978,0 12.4664835,0 C19.3403159,0 24.9330357,5.59230769 24.9330357,12.4665522 C24.9330357,19.340728 19.3403159,24.932967 12.4664835,24.932967 Z M12.4664835,0.804258242 C6.03571429,0.804258242 0.804258242,6.03612637 0.804258242,12.4665522 C0.804258242,18.896978 6.03571429,24.1287775 12.4664835,24.1287775 C18.8973214,24.1287775 24.1287775,18.896978 24.1287775,12.4665522 C24.1287775,6.03612637 18.8973214,0.804258242 12.4664835,0.804258242 Z" id="Shape"></path>
                        <polygon id="Shape" points="10.1618819 17.7839973 5.70521978 13.3273352 6.2739011 12.7587225 10.1618819 16.6466346 18.6243819 8.18447802 19.1930632 8.75309066"></polygon>
                    </g>
                </g>
            </g>
        </g>
    </g>
</svg>