<?xml version="1.0" encoding="UTF-8"?>
<svg width="26px" height="23px" viewBox="0 0 26 23" version="1.1" xmlns="http://www.w3.org/2000/svg" xmlns:xlink="http://www.w3.org/1999/xlink">
    <!-- Generator: Sketch 42 (36781) - http://www.bohemiancoding.com/sketch -->
    <title>Notificaiton_Warning</title>
    <desc>Created with Sketch.</desc>
    <defs></defs>
    <g id="DesktopViews" stroke="none" stroke-width="1" fill="none" fill-rule="evenodd">
        <g id="Checkout" transform="translate(-1230.000000, -589.000000)" fill-rule="nonzero" fill="#C92022">
            <g id="Notificaiton_Warning" transform="translate(1230.000000, 589.000000)">
                <g id="Capa_1">
                    <g id="Group">
                        <ellipse id="Oval" cx="12.9275949" cy="17.8493529" rx="1.19534177" ry="1.22847059"></ellipse>
                        <path d="M12.7669873,14.6614853 C13.1303291,14.6614853 13.4252152,14.3584265 13.4252152,13.9850147 L13.4252152,7.55854412 C13.4252152,7.18513235 13.1303291,6.88207353 12.7669873,6.88207353 C12.4036456,6.88207353 12.1087595,7.18513235 12.1087595,7.55854412 L12.1087595,13.9850147 C12.1087595,14.3584265 12.4036456,14.6614853 12.7669873,14.6614853 Z" id="Shape"></path>
                        <path d="M15.3268354,2.21273529 L15.2968861,2.16504412 C14.6873671,1.19972059 14.057443,0.20125 12.9275949,0.20125 C11.7500253,0.20125 11.1339241,1.21392647 10.5382278,2.19379412 C10.5352658,2.19852941 10.5168354,2.22897059 10.5138734,2.23404412 L0.0914936709,20.3840882 C0.0315949367,20.4882647 0,20.5427206 0,20.6634706 C0,21.9812353 1.03177215,22.9885 2.2998481,22.9885 L23.5556709,22.9885 C24.8240759,22.9885 25.855519,21.9808971 25.855519,20.6634706 C25.855519,20.5427206 25.8239241,20.4557941 25.7643544,20.3519559 L15.3268354,2.21273529 Z M23.5556709,21.6355588 L2.2998481,21.6355588 C1.81901266,21.6355588 1.40564557,21.3138971 1.32896203,20.8258235 L11.6545823,2.87872059 C12.1660253,2.03752941 12.5010633,1.53829412 12.9275949,1.53829412 C13.3426076,1.53829412 13.7362278,2.17079412 14.1923797,2.89326471 L24.5262278,20.8221029 C24.4498734,21.3098382 24.0365063,21.6355588 23.5556709,21.6355588 Z" id="Shape"></path>
                    </g>
                </g>
            </g>
        </g>
    </g>
</svg>