<?xml version="1.0" encoding="UTF-8" standalone="no"?>
<svg width="55px" height="55px" viewBox="0 0 55 55" version="1.1" xmlns="http://www.w3.org/2000/svg" xmlns:xlink="http://www.w3.org/1999/xlink">
    <!-- Generator: Sketch 41.2 (35397) - http://www.bohemiancoding.com/sketch -->
    <title>Product_Close</title>
    <desc>Created with Sketch.</desc>
    <defs></defs>
    <g id="DesktopViews" stroke="none" stroke-width="1" fill="none" fill-rule="evenodd">
        <g id="Category" transform="translate(-1143.000000, -1116.000000)">
            <g id="Product_Close" transform="translate(1143.000000, 1116.000000)">
                <rect id="Rectangle-6" fill="#2D343C" x="0" y="0" width="55" height="55"></rect>
                <g id="Group-2" transform="translate(18.000000, 18.000000)" stroke="#FFFFFF" stroke-linecap="square">
                    <path d="M0.5,0.5 L18.7482876,18.7482876" id="Line"></path>
                    <path d="M0.5,0.5 L18.7482876,18.7482876" id="Line" transform="translate(9.500000, 9.500000) scale(-1, 1) translate(-9.500000, -9.500000) "></path>
                </g>
            </g>
        </g>
    </g>
</svg>