<?xml version="1.0" encoding="UTF-8"?>
<svg width="247px" height="61px" viewBox="0 0 247 61" version="1.1" xmlns="http://www.w3.org/2000/svg" xmlns:xlink="http://www.w3.org/1999/xlink">
    <!-- Generator: Sketch 44.1 (41455) - http://www.bohemiancoding.com/sketch -->
    <title>Welcome_Download_Button</title>
    <desc>Created with Sketch.</desc>
    <defs>
        <filter x="-2.5%" y="-12.0%" width="108.0%" height="136.0%" filterUnits="objectBoundingBox" id="filter-1">
            <feOffset dx="3" dy="3" in="SourceAlpha" result="shadowOffsetOuter1"></feOffset>
            <feGaussianBlur stdDeviation="2.5" in="shadowOffsetOuter1" result="shadowBlurOuter1"></feGaussianBlur>
            <feColorMatrix values="0 0 0 0 0   0 0 0 0 0   0 0 0 0 0  0 0 0 0.163071784 0" type="matrix" in="shadowBlurOuter1" result="shadowMatrixOuter1"></feColorMatrix>
            <feMerge>
                <feMergeNode in="shadowMatrixOuter1"></feMergeNode>
                <feMergeNode in="SourceGraphic"></feMergeNode>
            </feMerge>
        </filter>
    </defs>
    <g id="Page-1" stroke="none" stroke-width="1" fill="none" fill-rule="evenodd">
        <g id="Welcome" transform="translate(-679.000000, -966.000000)">
            <g id="Welcome_Download_Button" filter="url(#filter-1)" transform="translate(681.000000, 968.900001)">
                <rect id="Rectangle-Copy" fill="#FFFFFF" x="0" y="0" width="237" height="50" rx="25"></rect>
                <rect id="Rectangle-Copy" fill="#F83E40" x="54" y="0" width="183" height="50" rx="25"></rect>
                <path d="M103.59,20.9 L103.59,26.765 L105.165,26.765 C106.62,26.765 107.355,25.37 107.355,23.855 C107.355,22.325 106.62,20.9 105.165,20.9 L103.59,20.9 Z M101.07,29 L101.07,18.665 L105.165,18.665 C108.15,18.665 109.86,20.915 109.86,23.855 C109.86,26.78 108.15,29 105.165,29 L101.07,29 Z M111.81,23.84 C111.81,20.9 114.165,18.53 117.075,18.53 C120.015,18.53 122.355,20.9 122.355,23.84 C122.355,26.75 120.015,29.135 117.075,29.135 C114.165,29.135 111.81,26.75 111.81,23.84 Z M114.345,23.84 C114.345,25.385 115.545,26.615 117.075,26.615 C118.605,26.615 119.835,25.385 119.835,23.84 C119.835,22.295 118.605,21.05 117.075,21.05 C115.545,21.05 114.345,22.295 114.345,23.84 Z M131.19,20.15 L129.105,20.15 L127.935,24.545 L126.15,18.665 L123.435,18.665 L126.915,29 L128.865,29 L130.125,23.975 L131.43,29 L133.365,29 L136.875,18.665 L134.145,18.665 L132.345,24.545 L131.19,20.15 Z M144.03,18.665 L144.03,24.23 L140.94,18.665 L138.675,18.665 L138.675,29 L141.18,29 L141.18,23.36 L144.345,29 L146.535,29 L146.535,18.665 L144.03,18.665 Z M155.85,29 L155.85,26.81 L152.13,26.81 L152.13,18.665 L149.595,18.665 L149.595,29 L155.85,29 Z M157.305,23.84 C157.305,20.9 159.66,18.53 162.57,18.53 C165.51,18.53 167.85,20.9 167.85,23.84 C167.85,26.75 165.51,29.135 162.57,29.135 C159.66,29.135 157.305,26.75 157.305,23.84 Z M159.84,23.84 C159.84,25.385 161.04,26.615 162.57,26.615 C164.1,26.615 165.33,25.385 165.33,23.84 C165.33,22.295 164.1,21.05 162.57,21.05 C161.04,21.05 159.84,22.295 159.84,23.84 Z M176.52,29 L175.65,26.63 L172.395,26.63 L171.525,29 L168.84,29 L172.65,18.665 L175.38,18.665 L179.175,29 L176.52,29 Z M174,21.065 L173.07,24.47 L175.005,24.47 L174,21.065 Z M183.435,20.9 L183.435,26.765 L185.01,26.765 C186.465,26.765 187.2,25.37 187.2,23.855 C187.2,22.325 186.465,20.9 185.01,20.9 L183.435,20.9 Z M180.915,29 L180.915,18.665 L185.01,18.665 C187.995,18.665 189.705,20.915 189.705,23.855 C189.705,26.78 187.995,29 185.01,29 L180.915,29 Z" id="download" fill="#FFFFFF"></path>
                <g id="apple-(1)" transform="translate(24.000000, 13.000000)" fill-rule="nonzero" fill="#F83E40">
                    <path d="M0.85888814,7.35206557 C-0.75316825,10.2861639 0.271645725,14.7388197 2.05431689,17.438623 C2.94415201,18.7883934 3.84505302,20 5.07899356,20 C5.10225069,20 5.12557033,19.999541 5.14945265,19.9985574 C5.72919277,19.9742951 6.14813362,19.787082 6.55319522,19.6061639 C7.00795955,19.4028852 7.47829114,19.1927213 8.21601716,19.1927213 C8.91785719,19.1927213 9.36574441,19.3960656 9.79887711,19.5926557 C10.2257579,19.7863607 10.6654551,19.9867541 11.3151542,19.9739672 C12.70508,19.9468197 13.5584664,18.6394098 14.3113846,17.4860328 C15.0970628,16.2817705 15.4911836,15.1125246 15.6241618,14.6657049 L15.6295385,14.6479344 C15.6548587,14.5685246 15.6190978,14.4818361 15.546513,14.4468852 C15.5445124,14.4459016 15.5371352,14.4426885 15.535072,14.4417705 C15.2903095,14.3367869 13.1432767,13.3377705 13.1207073,10.6148852 C13.0997634,8.40268852 14.7313883,7.23121311 15.0586135,7.01888525 L15.0738682,7.00891803 C15.1093166,6.98498361 15.1340116,6.94701639 15.1423892,6.90360656 C15.1507668,6.8602623 15.1420141,6.81514754 15.1182568,6.77868852 C13.9920368,5.05003279 12.2658829,4.7895082 11.57092,4.75816393 C11.4700766,4.74760656 11.3659822,4.74229508 11.2614502,4.74229508 C10.4452001,4.74229508 9.66327306,5.06563934 9.0350806,5.32544262 C8.60144775,5.50478689 8.22689549,5.65967213 7.96856635,5.65967213 C7.67828992,5.65967213 7.30161201,5.50288525 6.86541587,5.32137705 C6.28211217,5.07855738 5.62097211,4.80340984 4.92107018,4.80340984 C4.90437757,4.80340984 4.88793503,4.80360656 4.87174257,4.80393443 C3.24436899,4.82904918 1.70664787,5.80557377 0.85888814,7.35206557 Z" id="XMLID_229_"></path>
                    <path d="M11.572358,0.000131147541 C10.5868685,0.0422295082 9.40469384,0.678491803 8.69810236,1.54655738 C8.09760588,2.27619672 7.51098866,3.49272131 7.66553601,4.71895082 C7.67522648,4.79567213 7.73474471,4.85488525 7.80832976,4.86085246 C7.87485014,4.86629508 7.94274594,4.86904918 8.01039166,4.86911475 C8.97399939,4.86911475 10.0135054,4.30996721 10.7234104,3.40963934 C11.4705768,2.45895082 11.84838,1.23888525 11.734095,0.146032787 C11.7250922,0.0603934426 11.6532577,-0.00321311475 11.572358,0.000131147541 Z" id="XMLID_230_"></path>
                </g>
            </g>
        </g>
    </g>
</svg>