<?xml version="1.0" encoding="UTF-8"?>
<svg width="55px" height="37px" viewBox="0 0 55 37" version="1.1" xmlns="http://www.w3.org/2000/svg" xmlns:xlink="http://www.w3.org/1999/xlink">
    <!-- Generator: Sketch 51.2 (57519) - http://www.bohemiancoding.com/sketch -->
    <title>CoronaSunsets-Icons-Fast</title>
    <desc>Created with Sketch.</desc>
    <defs></defs>
    <g id="Branded-Landing" stroke="none" stroke-width="1" fill="none" fill-rule="evenodd">
        <g id="Corona-Sunset" transform="translate(-468.000000, -2735.000000)" fill="#2C4B6E" fill-rule="nonzero">
            <g id="Group-13-Copy" transform="translate(385.000000, 2735.000000)">
                <g id="CoronaSunsets-Icons-Fast" transform="translate(83.000000, 0.000000)">
                    <path d="M44.9653838,27.0537634 C43.621462,27.0537634 42.3447363,27.573178 41.3815923,28.5125448 C40.4184484,29.462963 39.8808797,30.7007168 39.8808797,32.0268817 C39.8808797,33.3530466 40.407249,34.5908005 41.3815923,35.5412186 C42.3559357,36.4805854 43.621462,37 44.9653838,37 C47.7204235,37 49.9602932,34.7676225 49.9602932,32.0268817 C49.9602932,29.286141 47.7204235,27.0537634 44.9653838,27.0537634 Z M44.9653838,34.7897252 C43.4198738,34.7897252 42.1207493,33.5298686 42.1207493,32.0268817 C42.1207493,30.5238949 43.4198738,29.2640382 44.9653838,29.2640382 C46.4884952,29.2640382 47.7204235,30.5017921 47.7204235,32.0268817 C47.7204235,33.5519713 46.4884952,34.7897252 44.9653838,34.7897252 Z M46.2645082,10.4877539 C46.06292,10.2998805 45.7941356,10.2004182 45.5141519,10.2004182 L39.7688862,10.2004182 C39.152922,10.2004182 38.6489513,10.69773 38.6489513,11.3055556 L38.6489513,20.3676822 C38.6489513,20.9755078 39.152922,21.4728196 39.7688862,21.4728196 L48.8851558,21.4728196 C49.5011199,21.4728196 50.0050906,20.9755078 50.0050906,20.3676822 L50.0050906,14.3004779 C50.0050906,13.9910394 49.8706984,13.6926523 49.6355121,13.4826762 L46.2645082,10.4877539 Z M47.7652209,19.2625448 L40.888821,19.2625448 L40.888821,12.3996416 L45.0773773,12.3996416 L47.7652209,14.7867384 L47.7652209,19.2625448 Z M17.616575,27.0537634 C16.2726532,27.0537634 14.9959275,27.573178 14.0327835,28.5125448 C13.0696396,29.462963 12.5320709,30.7007168 12.5320709,32.0268817 C12.5320709,33.3530466 13.0584402,34.5908005 14.0327835,35.5412186 C15.0071269,36.4805854 16.2726532,37 17.616575,37 C20.3716147,37 22.6114844,34.7676225 22.6114844,32.0268817 C22.6114844,29.286141 20.3716147,27.0537634 17.616575,27.0537634 Z M17.616575,34.7897252 C16.071065,34.7897252 14.7719405,33.5298686 14.7719405,32.0268817 C14.7719405,30.5238949 16.071065,29.2640382 17.616575,29.2640382 C19.1396864,29.2640382 20.3716147,30.5017921 20.3716147,32.0268817 C20.3716147,33.5519713 19.1396864,34.7897252 17.616575,34.7897252 Z M10.1466097,28.4130824 L7.89554062,28.4130824 L7.89554062,25.473417 C7.89554062,24.8655914 7.39156995,24.3682796 6.77560578,24.3682796 C6.15964162,24.3682796 5.65567094,24.8655914 5.65567094,25.473417 L5.65567094,29.5182198 C5.65567094,30.1260454 6.15964162,30.6233572 6.77560578,30.6233572 L10.1466097,30.6233572 C10.7625738,30.6233572 11.2665445,30.1260454 11.2665445,29.5182198 C11.2665445,28.9103943 10.7625738,28.4130824 10.1466097,28.4130824 Z M15.8246793,22.3900836 C15.8246793,21.7822581 15.3207086,21.2849462 14.7047445,21.2849462 L1.11993484,21.2849462 C0.503970678,21.2849462 0,21.7822581 0,22.3900836 C0,22.9979092 0.503970678,23.495221 1.11993484,23.495221 L14.7047445,23.495221 C15.3207086,23.495221 15.8246793,23.0089606 15.8246793,22.3900836 Z M3.39340257,18.4005376 L16.9782122,18.4778973 C17.5941763,18.4778973 18.098147,17.9916368 18.1093464,17.3838112 C18.1205457,16.7649343 17.616575,16.2676225 17.0006109,16.2676225 L3.41580126,16.1902628 C3.40460191,16.1902628 3.40460191,16.1902628 3.40460191,16.1902628 C2.78863775,16.1902628 2.28466707,16.6765233 2.28466707,17.2843489 C2.27346773,17.9032258 2.7774384,18.4005376 3.39340257,18.4005376 Z M5.67806964,13.3832139 L19.2628793,13.3832139 C19.8788434,13.3832139 20.3828141,12.885902 20.3828141,12.2780765 C20.3828141,11.6702509 19.8788434,11.1729391 19.2628793,11.1729391 L5.67806964,11.1729391 C5.06210548,11.1729391 4.5581348,11.6702509 4.5581348,12.2780765 C4.5581348,12.885902 5.06210548,13.3832139 5.67806964,13.3832139 Z M54.5856241,11.8912784 L46.5668907,5.33781362 C46.3653024,5.17204301 46.1189167,5.08363202 45.8501324,5.08363202 L36.420281,5.08363202 L36.420281,1.1051374 C36.420281,0.497311828 35.9163103,0 35.3003462,0 L6.77560578,0 C6.15964162,0 5.65567094,0.497311828 5.65567094,1.1051374 L5.65567094,9.19474313 C5.65567094,9.8025687 6.15964162,10.2998805 6.77560578,10.2998805 C7.39156995,10.2998805 7.89554062,9.8025687 7.89554062,9.19474313 L7.89554062,2.21027479 L34.1916107,2.21027479 L34.1916107,28.4130824 L25.008145,28.4130824 C24.3921808,28.4130824 23.8882101,28.9103943 23.8882101,29.5182198 C23.8882101,30.1260454 24.3921808,30.6233572 25.008145,30.6233572 L38.6825494,30.6233572 C39.2985135,30.6233572 39.8024842,30.1260454 39.8024842,29.5182198 C39.8024842,28.9103943 39.2985135,28.4130824 38.6825494,28.4130824 L36.4314804,28.4130824 L36.4314804,7.29390681 L45.4581552,7.29390681 L52.7601303,13.2616487 L52.6817349,28.3909797 L51.5170026,28.3909797 C50.9010385,28.3909797 50.3970678,28.8882915 50.3970678,29.4961171 C50.3970678,30.1039427 50.9010385,30.6012545 51.5170026,30.6012545 L53.7904704,30.6012545 C54.4064345,30.6012545 54.9104052,30.114994 54.9104052,29.5071685 L55,12.7532855 C54.9888007,12.4217443 54.8432091,12.1012545 54.5856241,11.8912784 Z" id="Shape"></path>
                </g>
            </g>
        </g>
    </g>
</svg>