<?xml version="1.0" encoding="UTF-8"?>
<svg width="392px" height="130px" viewBox="0 0 392 130" version="1.1" xmlns="http://www.w3.org/2000/svg" xmlns:xlink="http://www.w3.org/1999/xlink">
    <!-- Generator: Sketch 50.2 (55047) - http://www.bohemiancoding.com/sketch -->
    <title>Runner Rewards</title>
    <desc>Created with Sketch.</desc>
    <defs>
        <polygon id="path-1" points="0.0744749571 0.0954111571 41.3732262 0.0954111571 41.3732262 42.5047893 0.0744749571 42.5047893"></polygon>
        <polygon id="path-3" points="0.0322090593 0.122331208 39.7131764 0.122331208 39.7131764 39.5282425 0.0322090593 39.5282425"></polygon>
        <polygon id="path-5" points="0 0.211968697 46.7625073 0.211968697 46.7625073 48.2005855 0 48.2005855"></polygon>
    </defs>
    <g id="Branding-&amp;-Sub-Brands" stroke="none" stroke-width="1" fill="none" fill-rule="evenodd">
        <g id="Runner-Rewards">
            <g id="Logo-RunnerGift">
                <rect id="Rectangle-3" stroke="#EDEDED" fill="#FFFFFF" x="0.5" y="0.5" width="58" height="94"></rect>
                <rect id="Rectangle-4" fill="#F83E40" x="56" y="0" width="335" height="95"></rect>
                <g id="Page-1" transform="translate(86.000000, 24.000000)">
                    <path d="M61.9755943,48.2758621 C59.1634815,48.2758621 56.7902822,47.8142799 54.9223148,46.9072055 C53.0383026,45.9914157 51.5743067,44.7115895 50.5734698,43.1039292 C49.5840425,41.5147055 48.9725587,39.6432361 48.7554195,37.540808 C48.5397065,35.465867 48.6555854,33.2146063 49.0980644,30.8510508 L53.2055247,9.00550908 C53.2533025,8.75376745 53.4857733,8.62068966 53.7588909,8.62068966 L66.758361,8.62068966 C66.9245135,8.62068966 67.0813956,8.6381205 67.1876477,8.75778996 C67.2946128,8.87812983 67.3395381,9.00886117 67.3106575,9.16339231 L63.5857758,29.0097502 C63.1497147,31.3374384 63.3383298,33.0996298 64.1487688,34.2611275 C64.9271183,35.3824001 66.4695552,35.9465561 68.7332935,35.9465561 C70.7702658,35.9465561 72.5134406,35.4648614 73.9153967,34.5178972 C75.3209183,33.5665753 76.4297899,32.5622905 77.2142008,31.5355467 L81.4496627,9.00584429 C81.4963708,8.75343224 81.7291981,8.62068966 82.0016026,8.62068966 L95.0017859,8.62068966 C95.1668687,8.62068966 95.3248205,8.6381205 95.4310725,8.75778996 C95.536968,8.87812983 95.5833195,9.00886117 95.5537258,9.16339231 L88.4184397,47.1391698 C88.3713751,47.3922523 88.1378346,47.5048824 87.8657867,47.5048824 L74.8663165,47.5048824 C74.7001641,47.5048824 74.5432819,47.4931501 74.4366733,47.3748215 C74.3297082,47.255152 74.2844263,47.1254263 74.3136635,46.9715656 L74.873091,43.9989361 C73.2953556,45.1832279 71.5675125,46.1560031 69.7180857,46.8820649 C67.3726973,47.8025476 64.7684534,48.2758621 61.9755943,48.2758621" id="Fill-1" fill="#FEFEFE"></path>
                    <path d="M124.367068,46.5517241 C124.200918,46.5517241 124.044037,46.5399871 123.937786,46.4216104 C123.830466,46.3018924 123.785185,46.172114 123.814778,46.0181908 L127.539261,26.1644478 C127.975317,23.8401742 127.785634,22.0782735 126.978057,20.9122803 C126.196507,19.7918939 124.654445,19.2261675 122.391445,19.2261675 C121.376714,19.2261675 120.434362,19.3646648 119.589704,19.636294 C118.731854,19.9116119 117.934259,20.2737841 117.219384,20.7087261 C116.495952,21.1500396 115.845611,21.6409841 115.282624,22.1678105 C114.751014,22.6668033 114.290712,23.1631134 113.910278,23.6443329 L109.676646,46.172114 C109.628869,46.4249639 109.396401,46.5517241 109.123287,46.5517241 L96.1236074,46.5517241 C95.9578133,46.5517241 95.8002198,46.5399871 95.6943256,46.4216104 C95.5866486,46.3018924 95.5424368,46.172114 95.5709606,46.0181908 L102.707592,8.02196828 C102.755013,7.76945378 102.987481,7.65174782 103.260239,7.65174782 L116.259561,7.65174782 C116.425355,7.65174782 116.582592,7.66918574 116.688843,7.78890377 C116.796164,7.90929249 116.840375,8.04007689 116.812208,8.19467076 L116.251361,11.1681715 C117.829435,9.9857464 119.557971,9.01458837 121.406664,8.28789657 C123.748104,7.36737558 126.353388,6.89655172 129.149781,6.89655172 C131.959722,6.89655172 134.332182,7.35664455 136.20298,8.26475779 C138.086614,9.17991327 139.549168,10.458247 140.551419,12.0682365 C141.539766,13.6550873 142.150886,15.5256396 142.370519,17.6319392 C142.584803,19.7097344 142.469282,21.9612382 142.025738,24.3254178 L137.918681,46.1724494 C137.87126,46.4246285 137.638792,46.5517241 137.366391,46.5517241 L124.367068,46.5517241 Z" id="Fill-3" fill="#FEFEFE"></path>
                    <path d="M174.75467,46.5517241 C174.588164,46.5517241 174.43164,46.5399871 174.32539,46.4216104 C174.218069,46.3018924 174.173145,46.172114 174.201668,46.0181908 L177.926498,26.1644478 C178.362553,23.8391681 178.173227,22.0782735 177.364582,20.9122803 C176.584104,19.7918939 175.040976,19.2261675 172.780122,19.2261675 C171.765037,19.2261675 170.821975,19.3646648 169.976963,19.636294 C169.118045,19.9116119 168.320809,20.2747901 167.607362,20.7087261 C166.885001,21.1500396 166.23395,21.6396428 165.670608,22.1678105 C165.137216,22.6691507 164.676203,23.1654608 164.298265,23.6443329 L160.063576,46.172114 C160.016155,46.4249639 159.783331,46.5517241 159.510217,46.5517241 L146.511644,46.5517241 C146.345137,46.5517241 146.187901,46.5399871 146.082363,46.4216104 C145.97433,46.3018924 145.930118,46.172114 145.958285,46.0181908 L153.094184,8.02196828 C153.141961,7.76945378 153.374785,7.65174782 153.646829,7.65174782 L166.646472,7.65174782 C166.812979,7.65174782 166.969503,7.66918574 167.076466,7.78890377 C167.18343,7.90929249 167.228711,8.04007689 167.199474,8.19467076 L166.639342,11.1681715 C168.217055,9.9857464 169.94523,9.01458837 171.794631,8.28789657 C174.135351,7.36737558 176.739558,6.89655172 179.536656,6.89655172 C182.348016,6.89655172 184.720469,7.35664455 186.589123,8.26475779 C188.473465,9.17991327 189.937084,10.458247 190.93969,12.0682365 C191.926607,13.6550873 192.538439,15.5256396 192.757714,17.6319392 C192.972711,19.7097344 192.856477,21.9612382 192.412578,24.3254178 L188.306246,46.1724494 C188.259538,46.4246285 188.026714,46.5517241 187.753957,46.5517241 L174.75467,46.5517241 Z" id="Fill-5" fill="#FEFEFE"></path>
                    <g id="Group-9" transform="translate(196.337500, 6.896552)">
                        <mask id="mask-2" fill="white">
                            <use xlink:href="#path-1"></use>
                        </mask>
                        <g id="Clip-8"></g>
                        <path d="M29.2064715,15.7644734 L29.2863965,15.4278908 C29.541114,13.9944772 29.2690215,12.9277107 28.455524,12.049624 C27.6385515,11.1708461 26.112679,10.7534007 23.9203015,10.7534007 C21.6928265,10.7534007 19.818759,11.2327026 18.350919,12.3758396 C17.090189,13.3555231 16.146379,14.3822039 15.5399915,15.7644734 L29.2064715,15.7644734 Z M19.049394,42.5048238 C15.2717215,42.5048238 12.047269,41.9605552 9.463954,40.8882596 C6.859094,39.8059425 4.774094,38.2864827 3.266639,36.3720393 C1.758489,34.4569048 0.777844,32.1775423 0.355284,29.5985729 C-0.0655385,27.0551968 -0.013066,24.2706148 0.5106165,21.3177414 C1.0415965,18.3171798 2.061509,15.4959676 3.538384,12.9294385 C5.015259,10.3656741 6.866739,8.0984064 9.044869,6.19329336 C11.2289065,4.28196012 13.766699,2.77183061 16.588399,1.7047185 C19.410794,0.637260828 22.476439,0.0954111571 25.697069,0.0954111571 C28.7714015,0.0954111571 31.405104,0.538428554 33.5238115,1.41167735 C35.6616315,2.29356534 37.377934,3.53518898 38.623374,5.1013004 C39.863949,6.66257388 40.6941265,8.49511777 41.087844,10.5484792 C41.477739,12.5821433 41.468009,14.7802975 41.059349,17.0824675 C40.953014,17.685137 40.810539,18.3468986 40.624279,19.1036911 C40.4397565,19.8501167 40.2472415,20.5761538 40.051599,21.2607228 C39.854219,21.9570411 39.645719,22.6222583 39.4340915,23.238405 C39.2144715,23.8704478 39.026474,24.5605458 38.8579365,24.9202815 C38.769324,25.1141448 38.574029,25.4403604 38.362054,25.4403604 L13.6565415,25.4403604 C13.7482815,27.1681974 14.3633565,28.6323664 15.5281765,29.7803413 C16.7847365,31.0181637 18.8176115,31.545154 21.571549,31.545154 C23.6117215,31.545154 25.738769,31.0990265 27.8957015,30.3253011 C30.072094,29.5443188 31.874229,28.6810914 33.254499,27.804387 C33.343459,27.7470228 33.4459715,27.7065914 33.5495265,27.7065914 C33.6079065,27.7065914 33.6655915,27.7079737 33.7218865,27.7269799 C33.8775665,27.778815 34.0026665,27.8952712 34.0610465,28.0487031 L37.247274,36.4456452 C37.334149,36.6764842 37.2531815,36.9384243 37.0502415,37.0818347 C34.6573565,38.7588733 31.886739,40.095528 28.817619,41.0558598 C25.7412015,42.0175738 22.455589,42.5048238 19.049394,42.5048238 Z" id="Fill-7" fill="#FEFEFE" mask="url(#mask-2)"></path>
                    </g>
                    <g id="Group-12" transform="translate(238.037500, 6.896552)">
                        <mask id="mask-4" fill="white">
                            <use xlink:href="#path-3"></use>
                        </mask>
                        <g id="Clip-11"></g>
                        <path d="M0.589004812,39.5282425 C0.423496405,39.5282425 0.26753656,39.5165793 0.162148728,39.3989467 C0.056760896,39.2799812 0.0118472898,39.1510185 0.0408466261,38.9980629 L7.11880658,1.24067372 C7.16548844,0.98974645 7.39642218,0.872780354 7.66696477,0.872780354 L20.5610599,0.872780354 C20.7251537,0.872780354 20.8807599,0.890108664 20.986855,1.00907418 C21.0925965,1.12870617 21.1375101,1.2586685 21.1085108,1.41229064 L20.2792005,5.83001014 C21.532184,4.40475659 22.899043,3.18844248 24.3638631,2.21139235 C26.438023,0.827793393 28.8651259,0.122331208 31.5811613,0.122331208 C34.6016898,0.122331208 37.2590192,0.885110113 39.4827732,2.38967401 C39.7069876,2.54296291 39.7791322,2.82754709 39.6482816,3.0598131 L33.7734404,13.544774 C33.673711,13.7223892 33.4792033,13.8246928 33.2804517,13.8246928 C33.194161,13.8246928 33.1075166,13.8060316 33.026177,13.7673761 C32.2615848,13.3971501 31.3403254,13.0699116 30.2882153,12.7919922 C29.2435319,12.5174051 28.1221064,12.3784454 26.9508161,12.3784454 C24.9360695,12.3784454 23.1285621,12.9386163 21.5834633,14.0429629 C20.0270477,15.1553072 18.8111975,16.5419052 17.9698631,18.1637685 L14.0316118,39.1520183 C13.9852836,39.4019458 13.7529352,39.5282425 13.4838072,39.5282425 L0.589004812,39.5282425 Z" id="Fill-10" fill="#FEFEFE" mask="url(#mask-4)"></path>
                    </g>
                    <g id="Group-15">
                        <mask id="mask-6" fill="white">
                            <use xlink:href="#path-5"></use>
                        </mask>
                        <g id="Clip-14"></g>
                        <path d="M26.8067901,21.7820347 C28.5809997,21.7820347 30.0292909,21.4239032 31.235965,20.4337344 C32.4422865,19.4425385 33.1745447,18.2212619 33.4725978,16.5744045 C33.7724146,14.9196723 33.5244485,13.9075911 32.7142379,12.9858988 C31.9015582,12.061125 30.6613751,11.8529567 28.9231435,11.8529567 L19.1092602,11.8529567 L17.1893749,21.7820347 L26.8067901,21.7820347 Z M30.5146413,48.1454488 C30.3252276,48.1454488 30.1485121,48.2053656 30.0469272,48.048897 L19.2468231,31.7111127 L15.4197508,31.7111127 L12.4642633,47.8540817 C12.416998,48.1122377 12.1866682,48.1454488 11.9175386,48.1454488 L0.555190038,48.1454488 C0.39117265,48.1454488 0.235620677,48.2690487 0.130508459,48.1461335 C0.0243380639,48.0242455 -0.0201053571,47.9626168 0.00846541353,47.8051211 L8.57334756,0.606392761 C8.62061278,0.348579115 8.8512953,0.211968697 9.12077763,0.211968697 L30.9654245,0.211968697 C33.6683605,0.211968697 36.1127487,0.533465395 38.230513,1.17132306 C40.380728,1.8211641 42.1718684,2.83666911 43.5503199,4.19284422 C44.9365314,5.55381267 45.8934758,7.28695035 46.3925825,9.3443238 C46.8839292,11.3770457 46.8863983,13.7771436 46.3964625,16.4751137 C46.0687805,18.280494 45.476907,19.992404 44.6367147,21.5632526 C43.7989914,23.1286231 42.7545711,24.5495084 41.5373151,25.7851651 C40.3186483,27.0197946 38.9292623,28.1030912 37.4072515,29.0011592 C36.1014615,29.7725459 34.7131336,30.3949963 33.2726024,30.8558425 L43.4833021,45.4683639 C43.5644289,45.5834043 43.5954688,45.7268623 43.570778,45.8634727 L43.1676127,47.8931132 C43.1210529,48.1512693 42.8900177,48.1454488 42.6205353,48.1454488 L30.5146413,48.1454488 Z" id="Fill-13" fill="#FEFEFE" mask="url(#mask-6)"></path>
                    </g>
                </g>
            </g>
            <rect id="Rectangle-3-Copy" stroke="#EDEDED" stroke-width="0.5" fill="#FFFFFF" x="195.25" y="95.25" width="196.5" height="34.5"></rect>
            <path d="M220.854,122 L216.178,122 L216.178,102.708 L224.158,102.708 C228.694,102.708 230.766,105.928 230.766,109.148 C230.766,111.892 229.282,114.552 226.146,115.336 L230.85,122 L225.418,122 L221.274,115.56 L220.854,115.56 L220.854,122 Z M223.934,106.796 L220.854,106.796 L220.854,111.528 L223.934,111.528 C225.474,111.528 226.034,110.296 226.034,109.148 C226.034,108 225.474,106.796 223.934,106.796 Z M250.922,122 L238.154,122 L238.154,102.708 L250.67,102.708 L250.67,106.796 L242.83,106.796 L242.83,110.492 L249.718,110.492 L249.718,114.496 L242.83,114.496 L242.83,117.912 L250.922,117.912 L250.922,122 Z M270.574,105.48 L272.73,113.684 L276.09,102.708 L281.186,102.708 L274.634,122 L271.022,122 L268.586,112.62 L266.234,122 L262.594,122 L256.098,102.708 L261.166,102.708 L264.498,113.684 L266.682,105.48 L270.574,105.48 Z M298.206,122 L296.582,117.576 L290.506,117.576 L288.882,122 L283.87,122 L290.982,102.708 L296.078,102.708 L303.162,122 L298.206,122 Z M293.502,107.188 L291.766,113.544 L295.378,113.544 L293.502,107.188 Z M313.686,122 L309.01,122 L309.01,102.708 L316.99,102.708 C321.526,102.708 323.598,105.928 323.598,109.148 C323.598,111.892 322.114,114.552 318.978,115.336 L323.682,122 L318.25,122 L314.106,115.56 L313.686,115.56 L313.686,122 Z M316.766,106.796 L313.686,106.796 L313.686,111.528 L316.766,111.528 C318.306,111.528 318.866,110.296 318.866,109.148 C318.866,108 318.306,106.796 316.766,106.796 Z M335.69,106.88 L335.69,117.828 L338.63,117.828 C341.346,117.828 342.718,115.224 342.718,112.396 C342.718,109.54 341.346,106.88 338.63,106.88 L335.69,106.88 Z M330.986,122 L330.986,102.708 L338.63,102.708 C344.202,102.708 347.394,106.908 347.394,112.396 C347.394,117.856 344.202,122 338.63,122 L330.986,122 Z M353.69,116.26 L358.422,116.26 C358.478,117.296 359.178,118.136 360.802,118.136 C362.006,118.136 363.182,117.604 363.182,116.4 C363.182,116.092 363.182,115.448 361.25,114.804 L358.982,114.048 C354.67,112.872 353.942,110.128 353.942,108.364 C353.942,104.836 356.826,102.456 360.69,102.456 C364.498,102.456 367.326,104.668 367.326,108.476 L362.65,108.476 C362.65,107.44 362.062,106.684 360.634,106.684 C359.374,106.684 358.59,107.3 358.59,108.224 C358.59,108.588 358.702,109.288 360.382,109.792 L362.594,110.492 C367.662,112.06 367.942,115 367.942,116.372 C367.942,120.628 364.05,122.252 360.802,122.252 C356.49,122.252 353.69,119.9 353.69,116.26 Z" id="Rewards" fill="#313131"></path>
            <g id="quality-(1)" transform="translate(10.000000, 37.000000)" fill="#000000" fill-rule="nonzero" stroke="#000000" stroke-width="0.8">
                <path d="M33.9998922,8.91022529 C33.9998114,8.90078462 33.9992455,8.89142071 33.9987604,8.88190329 C33.9982754,8.87207886 33.9976287,8.86225443 33.9968203,8.85235324 C33.9962544,8.84605946 33.9961736,8.83968893 33.995446,8.83347191 C33.9944759,8.82487553 33.9928591,8.81627915 33.9916465,8.80775952 C33.9901914,8.79816535 33.9884937,8.78857118 33.9867152,8.77890025 C33.9853409,8.77168543 33.9844517,8.76439386 33.9828349,8.7572558 C33.9812181,8.75011773 33.9790354,8.74305642 33.9772569,8.73591836 C33.9747508,8.72609392 33.9720022,8.71626949 33.969092,8.70644506 C33.9667476,8.69853946 33.9647266,8.69048035 33.9621397,8.68265151 C33.9602804,8.67712527 33.9578552,8.67167578 33.9558341,8.66614953 C33.9520346,8.65571107 33.9479926,8.64534936 33.9437889,8.63498766 C33.9403936,8.62677505 33.9372408,8.61848568 33.933603,8.61042657 C33.9316628,8.60620514 33.9293185,8.60206046 33.9272975,8.59783902 C33.9221237,8.58701679 33.9166265,8.57642483 33.9109677,8.56575611 C33.9066023,8.55762025 33.9023986,8.54948439 33.8977098,8.54157879 C33.8969014,8.54019723 33.8963355,8.53881567 33.8955271,8.53743411 L29.0446937,0.39021595 C29.0422685,0.386148021 29.0391965,0.382694119 29.0366905,0.378702943 C29.0231901,0.356828228 29.0084772,0.335567541 28.9926324,0.315074388 C28.9885096,0.309701651 28.9845484,0.304252161 28.9803447,0.298956177 C28.9602154,0.274164834 28.938631,0.250141025 28.9152681,0.227729037 C28.9149447,0.227422024 28.9145405,0.22711501 28.9141363,0.226731243 C28.891986,0.205547309 28.8679764,0.18582169 28.8430775,0.167017111 C28.8368528,0.162335154 28.8305472,0.157960211 28.8242417,0.153508515 C28.8041932,0.139309139 28.7831747,0.125954051 28.7614286,0.113289742 C28.7543955,0.109221813 28.7475241,0.104923623 28.7403293,0.101085954 C28.7127627,0.0861957979 28.6843068,0.0723034355 28.6543958,0.0603299076 C28.6540725,0.0601764009 28.6537491,0.0600228941 28.6533449,0.0598693873 C28.6532641,0.0597926339 28.6531024,0.0597926339 28.6530215,0.0597158806 C28.6229489,0.0477423527 28.5923912,0.0382249332 28.5617526,0.0298588144 C28.5531835,0.0275562128 28.5445336,0.025790885 28.5358837,0.0237185437 C28.5117932,0.0179620399 28.4876219,0.0133568369 28.4633697,0.00974942786 C28.4547198,0.00852137372 28.4462316,0.00713981282 28.4375008,0.00614201883 C28.4050838,0.00238110304 28.3726667,1.74815081e-06 28.3404114,1.74815081e-06 C28.3403305,1.74815081e-06 28.3402497,1.74815081e-06 28.340088,1.74815081e-06 L28.3399263,1.74815081e-06 C28.338552,1.74815081e-06 28.3372586,1.74815081e-06 28.3358843,1.74815081e-06 L17.0000269,1.74815081e-06 L16.9979251,1.74815081e-06 L5.6679691,1.74815081e-06 C5.63442029,-7.50052327e-05 5.60087149,0.00238110304 5.56716101,0.0062955256 C5.55931948,0.0072165662 5.55163964,0.00852137372 5.54387895,0.00967267448 C5.51938428,0.0132800835 5.49488961,0.0179620399 5.47047579,0.0237952971 C5.46142165,0.0259443918 5.45244836,0.0279399798 5.4435559,0.030396088 C5.41712106,0.0376109061 5.39084791,0.046207285 5.36481727,0.0561084715 C5.36045188,0.057797046 5.35600566,0.0589483467 5.35164027,0.0607136745 C5.3509127,0.0610206881 5.3501043,0.0611741948 5.34937674,0.0614812084 C5.32011248,0.0733012294 5.29230335,0.0869633317 5.26538347,0.101623228 C5.25859287,0.10530739 5.25220647,0.109452073 5.24557755,0.113289742 C5.22375062,0.125877297 5.20273209,0.139309139 5.18260281,0.153662022 C5.17597389,0.158343978 5.16942581,0.163102688 5.16287773,0.168014905 C5.14040408,0.184977403 5.11890051,0.202937694 5.09869038,0.22189578 C5.09602265,0.224351888 5.09319323,0.226577736 5.09060634,0.229110598 C5.06740512,0.251445833 5.04582071,0.275162628 5.0258531,0.299877218 C5.0220536,0.304559174 5.0186583,0.309548144 5.01493964,0.314306854 C4.99901406,0.334953514 4.98413941,0.356367708 4.97055821,0.378395929 C4.968133,0.382387105 4.96506106,0.385841007 4.96263584,0.389832183 L0.115036014,8.5201646 C0.114874333,8.52039486 0.114793492,8.52054836 0.114631811,8.52077862 L0.105011793,8.53682008 C0.104203388,8.53820164 0.103637505,8.53965996 0.10274826,8.54104152 C0.0977361493,8.54956114 0.093209082,8.55831103 0.0885203338,8.56706091 C0.0826998187,8.57788314 0.0770409845,8.58870537 0.0717863529,8.59983461 C0.0701695431,8.60321176 0.0683910524,8.60658891 0.0667742426,8.60996605 C0.0628130588,8.61863919 0.0594177583,8.62754258 0.0557799363,8.63644597 C0.05141455,8.64703794 0.0472108447,8.65762991 0.0433305013,8.66845213 C0.041632851,8.67305734 0.0396926793,8.67766254 0.0381567101,8.68226774 C0.035327293,8.69071061 0.0332254403,8.69938375 0.0306385447,8.70798013 C0.0276474467,8.71811157 0.0246563487,8.72824302 0.0221502936,8.73860473 C0.0206143243,8.744745 0.0187549931,8.75080851 0.0173807048,8.75694878 C0.0156830546,8.76470088 0.0146321282,8.77268323 0.0131769995,8.78051207 C0.0113176682,8.79049001 0.00945833703,8.80046795 0.00800320826,8.81067615 C0.00695228192,8.81819798 0.00557799363,8.82571982 0.00476958876,8.83324165 C0.00396118389,8.84014945 0.0038803434,8.84713401 0.0032336195,8.85404181 C0.00234437414,8.86425001 0.00153596926,8.87438146 0.00113176682,8.88466641 C0.000808404875,8.89310929 0.00032336195,8.90155216 0.000242521462,8.90999503 C0.000242521462,8.91176036 0,8.91352569 0,8.91529101 C0,8.92004972 0.0006467239,8.92473168 0.000727564387,8.92949039 C0.000889245362,8.93962184 0.0012934478,8.94975328 0.00185933121,8.95996148 C0.00234437414,8.9683276 0.00282941706,8.97669372 0.00363782194,8.98505984 C0.00428454583,8.9921979 0.0051737912,8.99918246 0.00606303656,9.00624377 C0.00727564387,9.0159147 0.00873077264,9.02550887 0.0103475824,9.0351798 C0.0116410302,9.04277838 0.0128536375,9.05037697 0.0143896068,9.0578988 C0.015925576,9.06572765 0.0175423858,9.07347974 0.019401717,9.08123183 C0.0215844101,9.09051899 0.0240904653,9.09965264 0.0265965204,9.10886305 C0.0284558516,9.1156941 0.0303960233,9.12252515 0.0324170355,9.1293562 C0.0349230906,9.13756881 0.0374291457,9.14570467 0.0401777223,9.15384053 C0.0431688203,9.16259042 0.0465641208,9.1711868 0.0498785808,9.17978317 C0.0524654764,9.18646072 0.0551332124,9.19313826 0.057881789,9.19981581 C0.0612770895,9.20779816 0.0645915495,9.21578051 0.0682293714,9.22368611 C0.0718671933,9.23166846 0.0759092177,9.23949731 0.0798704016,9.24732615 C0.0835082235,9.25446422 0.087226886,9.26152553 0.0910263889,9.26858684 C0.0951492537,9.27603192 0.0991912781,9.283477 0.103556664,9.29084532 C0.107679529,9.29782988 0.111964075,9.30466093 0.116329461,9.31156873 C0.121179891,9.31924407 0.126272841,9.32684266 0.131446633,9.33436449 C0.136216221,9.34134905 0.141147491,9.3481801 0.146159601,9.35501115 C0.150605828,9.36099791 0.154971214,9.36698468 0.159659963,9.37297144 C0.165642159,9.38064678 0.171786036,9.38809186 0.178091594,9.39561369 C0.183831268,9.40236799 0.189813465,9.40889202 0.19571482,9.41549282 C0.199110121,9.41925373 0.201939538,9.42324491 0.205496519,9.42700582 L16.4973608,26.7434902 C16.5173284,26.7647509 16.5386703,26.7847835 16.5608206,26.8035881 C16.5640542,26.8062745 16.5675303,26.8085771 16.570764,26.8112634 C16.5941269,26.8305285 16.6186215,26.8482586 16.6439246,26.8647605 C16.6521703,26.8701333 16.6605777,26.875199 16.6689852,26.8802647 C16.6925906,26.8943873 16.7168427,26.9072819 16.7417416,26.9191019 C16.748613,26.9223256 16.7551611,26.925933 16.7621134,26.9290031 C16.7935603,26.942742 16.8258157,26.9544852 16.8589603,26.9643864 C16.8668827,26.9667658 16.8749667,26.9684544 16.8829699,26.9705267 C16.9095664,26.977588 16.9365672,26.9833445 16.9638912,26.987873 C16.9739155,26.9894848 16.9838588,26.9911734 16.9939639,26.9924782 C17.0292912,26.9969299 17.0647802,27 17.1009159,27 C17.1018051,27 17.1026135,27 17.1034219,27 C17.1396385,26.9999232 17.1752891,26.9966996 17.2106973,26.9920944 C17.2208023,26.9907896 17.2306649,26.989101 17.2407699,26.9874124 C17.2681748,26.9828072 17.2953372,26.976974 17.3220146,26.9697592 C17.3300178,26.9676101 17.3381019,26.9659215 17.3460242,26.9634654 C17.3791688,26.9534874 17.411505,26.9415139 17.4430328,26.9275448 C17.4499043,26.9244747 17.4564523,26.9208673 17.4632429,26.9176436 C17.4882227,26.9057468 17.5125556,26.892622 17.5361611,26.8782691 C17.5446493,26.8731267 17.5529759,26.8679842 17.5613025,26.8625347 C17.586363,26.8460327 17.6106151,26.8283027 17.6337355,26.8091143 C17.6372117,26.8061977 17.6410112,26.8036648 17.6444873,26.8007482 C17.6666376,26.7816366 17.6879795,26.7614505 17.7080279,26.7398828 L33.7977102,9.42408919 C33.8006204,9.42094231 33.8029648,9.41756516 33.8057942,9.41441827 C33.8111297,9.40850826 33.8164651,9.40252149 33.8216389,9.39645798 C33.8285912,9.38824536 33.8352201,9.379956 33.8417682,9.37151313 C33.8462953,9.36567987 33.8507415,9.35984661 33.8551069,9.3539366 C33.859634,9.34779633 33.8639994,9.34150255 33.8683647,9.33520878 C33.8740236,9.32699616 33.879359,9.3187068 33.8846945,9.31034068 C33.8890599,9.30343288 33.8934253,9.29667858 33.8975482,9.28969402 C33.9014285,9.28301648 33.9050663,9.27626218 33.908785,9.26943113 C33.9129078,9.26183254 33.916869,9.25408045 33.9207494,9.24632836 C33.9247914,9.23834601 33.9289143,9.23044041 33.9326329,9.2223813 C33.9359474,9.21516648 33.9388576,9.20787491 33.9419296,9.20058334 C33.9449207,9.19344528 33.9477501,9.18623046 33.9504987,9.17893889 C33.953894,9.17011225 33.957451,9.16128561 33.9605229,9.15238222 C33.963029,9.14501389 33.9651308,9.13756881 33.9674752,9.13012374 C33.9697387,9.12275541 33.9716789,9.11531033 33.9736999,9.10786525 C33.9762059,9.09850134 33.9789545,9.08921418 33.9810564,9.07969676 C33.9826732,9.0727122 33.9840475,9.06565089 33.9854218,9.05851283 C33.9870386,9.05030022 33.988332,9.04201085 33.9897063,9.03372149 C33.9912423,9.02405056 33.9928591,9.01445639 33.9940717,9.00470871 C33.9948801,8.99841493 33.9956077,8.9920444 33.9961736,8.98567387 C33.9970628,8.97646346 33.997467,8.96725306 33.9980329,8.95788914 C33.9985988,8.94798796 33.9990838,8.93808677 33.9992455,8.92826234 C33.9993263,8.92411765 33.9998922,8.92004972 33.9998922,8.91590504 C34.0001347,8.91367919 33.9998922,8.91199062 33.9998922,8.91022529 Z M27.1229536,1.5369115 L24.4982247,7.48361015 L18.825486,1.5369115 L27.1229536,1.5369115 Z M15.1874215,1.5369115 L9.56601656,7.49189952 L6.89189408,1.5369115 L15.1874215,1.5369115 Z M5.56433159,2.50016646 L8.10005516,8.14683614 L2.19797201,8.14683614 L5.56433159,2.50016646 Z M2.61818087,9.6840529 L8.7901904,9.6840529 L14.42647,22.2345359 L2.61818087,9.6840529 Z M17.094772,24.2572178 L10.5502495,9.6840529 L13.7619612,9.6840529 C14.2090091,9.6840529 14.5714979,9.33996749 14.5714979,8.91544452 C14.5714979,8.49092156 14.2090091,8.14683614 13.7619612,8.14683614 L11.1220343,8.14683614 L17.0032606,1.91645698 L22.9465724,8.14683614 L20.2382544,8.14683614 C19.7912065,8.14683614 19.4287177,8.49092156 19.4287177,8.91544452 C19.4287177,9.33996749 19.7912065,9.6840529 20.2382544,9.6840529 L23.5270879,9.6840529 L17.094772,24.2572178 Z M19.7499778,22.2188782 L25.2825391,9.6840529 L31.3969902,9.6840529 L19.7499778,22.2188782 Z M25.9608716,8.14683614 L28.4480909,2.51175622 L31.8031328,8.14683614 L25.9608716,8.14683614 Z" id="Shape"></path>
            </g>
        </g>
    </g>
</svg>