<?xml version="1.0" encoding="UTF-8"?>
<svg width="52px" height="58px" viewBox="0 0 52 58" version="1.1" xmlns="http://www.w3.org/2000/svg" xmlns:xlink="http://www.w3.org/1999/xlink">
    <!-- Generator: Sketch 50.2 (55047) - http://www.bohemiancoding.com/sketch -->
    <title>BudLightDreams-How-Enjoy</title>
    <desc>Created with Sketch.</desc>
    <defs></defs>
    <g id="Branded-Landing" stroke="none" stroke-width="1" fill="none" fill-rule="evenodd">
        <g id="Runner---Bud-Light-Dreams-Desktop" transform="translate(-1031.000000, -718.000000)" fill="#4C2E90" fill-rule="nonzero">
            <g id="BudLightDreams-How-Enjoy" transform="translate(1032.000000, 718.000000)">
                <path d="M21.649789,11.5223605 L16.4927199,10.0663713 C15.9290134,9.90722649 15.2966901,10.0390765 14.8424921,10.4103768 C14.4970532,10.6925741 14.2819969,11.09241 14.2352176,11.5289022 L13.6639108,13.7755401 C13.4955268,14.1865421 13.4941352,14.6554047 13.6645531,15.0888516 C13.7206454,15.2315293 13.7939722,15.3666501 13.8813221,15.4918456 C13.3353853,16.6894359 12.7130173,18.1664037 12.0597129,19.8096221 C12.0589636,19.8115395 12.0582143,19.8133441 12.057465,19.8151488 C11.4868004,21.2507232 10.8929068,22.8121698 10.3062923,24.424484 C8.3064508,24.9960971 5.75628356,27.4623346 5.01434471,30.37905 L0.105409255,49.6828339 C-0.366986666,51.5408019 0.793075559,53.4883242 2.69133001,54.0241833 L7.71683903,55.443065 C7.71683903,55.443065 7.71705312,55.443065 7.71705312,55.4431777 L12.7423481,56.8619466 C13.0692679,56.9542078 13.4013259,57 13.7302796,57 C14.3030851,57 14.8663634,56.8612699 15.3757974,56.5885469 C16.216326,56.13852 16.8080787,55.3841893 17.0419752,54.4645103 L17.7172241,51.8091262 C17.7173312,51.8087879 17.7175453,51.8083367 17.7175453,51.8079983 C17.7176523,51.80766 17.7176523,51.8073216 17.7177593,51.8069832 L21.9510177,35.1608392 C22.6928495,32.244011 21.6544991,28.7648183 20.1939575,27.2161169 C20.5618761,24.7748057 20.8678148,22.4152664 21.0839416,20.3775131 C21.0845838,20.3716481 21.0853332,20.3657831 21.0858684,20.3598053 C21.1939853,19.3387293 21.2793013,18.3995379 21.3387121,17.571105 C21.8021161,17.3318802 22.1697136,16.8925683 22.313584,16.3273842 L22.9378788,13.872764 C23.1974664,12.8505601 22.6196297,11.7962114 21.649789,11.5223605 Z M14.9739451,53.8803777 C14.8993337,54.1735155 14.6976583,54.4210867 14.4058497,54.577299 C14.0756114,54.7540389 13.6815735,54.7915975 13.2963134,54.6828692 L8.27112548,53.2642131 C8.27101843,53.2642131 8.27101843,53.2641003 8.27091138,53.2641003 L3.24540236,51.8452186 C2.50025212,51.6348677 2.00933716,50.9118922 2.1733323,50.2665154 L2.57186618,48.6993165 L15.372479,52.3132917 L14.9739451,53.8803777 Z M15.9266584,50.1344398 L3.12593854,46.5204647 L6.80544568,32.0522702 L19.6060585,35.6662453 L15.9266584,50.1344398 Z M20.0477321,33.455587 L7.47170269,29.9049992 C8.39990234,27.9743952 10.2834914,26.5773945 11.1157775,26.5552879 C11.550493,26.5437835 11.9355391,26.2561723 12.089793,25.8276881 C12.6461133,24.2820319 13.2115326,22.7767541 13.758754,21.3788511 L18.8173403,21.3788511 C18.6409278,22.8932648 18.4215897,24.54889 18.1694953,26.2591048 L17.9077668,26.1852282 C17.3364599,26.0239404 16.7497384,26.3810294 16.5967691,26.9827571 C16.4437997,27.5844847 16.7826017,28.2029051 17.3536944,28.3640801 L18.5824805,28.7110181 C19.279888,29.2983088 20.1549926,31.3950505 20.0477321,33.455587 Z M20.3107452,15.4872212 C20.3022885,15.487334 20.2939389,15.4883491 20.2854822,15.4886875 C20.2775608,15.4889131 20.2698534,15.489477 20.262039,15.4900409 C20.2360268,15.4917328 20.2102286,15.4943269 20.1846445,15.4979362 C20.1757596,15.4991768 20.1669818,15.5003047 20.158204,15.501771 C20.1326199,15.5060569 20.1073569,15.5114708 20.082201,15.5176742 C20.0749219,15.5194788 20.0674286,15.5208323 20.0601495,15.5228625 C20.0294271,15.5312088 19.999133,15.5407959 19.9693741,15.5519619 C19.9597399,15.5555712 19.9504269,15.5599699 19.9407927,15.5638047 C19.920775,15.5720383 19.9008644,15.5804975 19.8813819,15.5898589 C19.8692857,15.5957239 19.8575106,15.6020401 19.8457354,15.6083563 C19.8289292,15.6172666 19.812444,15.6265153 19.7960659,15.6363279 C19.7846119,15.643208 19.773158,15.6503137 19.7619181,15.6576449 C19.7448977,15.6686982 19.7284126,15.680541 19.7120344,15.6926094 C19.7026144,15.6996023 19.6930872,15.7062569 19.6838812,15.7135881 C19.6621508,15.730732 19.6411697,15.7487782 19.6207238,15.7676139 C19.6175124,15.7705464 19.614087,15.7731406 19.6109826,15.7761858 C19.5868972,15.7989692 19.5639892,15.8229932 19.5418306,15.8479195 C19.5372276,15.8531077 19.5330528,15.8586344 19.5285569,15.8639354 C19.5117506,15.8836735 19.4954795,15.9039754 19.4799578,15.9250669 C19.473642,15.9336389 19.4676474,15.9425492 19.4615458,15.9513467 C19.4488073,15.9696184 19.436604,15.9883414 19.4249359,16.0075154 C19.4184061,16.0182304 19.4119833,16.0291709 19.4057746,16.0401114 C19.3957122,16.057932 19.3862921,16.0763165 19.3770861,16.0948139 C19.3708775,16.1073334 19.3646688,16.1197402 19.3588883,16.1324853 C19.3508598,16.1505315 19.3435806,16.1690288 19.3364085,16.1875262 C19.3310562,16.2011736 19.3252757,16.2145955 19.3205656,16.2284685 C19.3111455,16.2557633 19.302903,16.2837349 19.2954097,16.3121577 C19.2865249,16.3458815 19.2793528,16.3802821 19.2733582,16.4151338 C19.2720736,16.422465 19.2701468,16.4297963 19.2689692,16.4371276 C19.2682199,16.4418647 19.2681129,16.4469402 19.2673636,16.4519029 C19.2626535,16.4859651 19.2589069,16.5200272 19.2570871,16.5539766 C19.2181222,17.2924042 19.1504688,18.159862 19.0580878,19.1231902 L14.6644739,19.1231902 C15.2179039,17.7831478 15.7331184,16.6092431 16.17704,15.6839247 C16.1910631,15.6545996 16.2035875,15.6241467 16.2152556,15.5932426 C16.2172895,15.587716 16.2200727,15.5823021 16.2221065,15.5767754 C16.2242475,15.5706849 16.2257461,15.5642559 16.2278871,15.5581653 C16.2396622,15.5238776 16.2499386,15.4893642 16.2585023,15.4545125 C16.2654604,15.425977 16.271669,15.3973286 16.2763791,15.3687931 C16.2787341,15.3548073 16.2800187,15.3408215 16.2818385,15.3268357 C16.2845146,15.3060826 16.2871908,15.2854423 16.2886894,15.2648019 C16.2897599,15.2516057 16.2901881,15.2384094 16.2907233,15.2252131 C16.2916867,15.2031065 16.292222,15.1811127 16.2919008,15.1592317 C16.2916867,15.1475017 16.2914726,15.1357717 16.2909374,15.1241544 C16.289974,15.0997921 16.2880471,15.0756553 16.2855851,15.0516313 C16.2846217,15.0422699 16.2837653,15.0329084 16.2825878,15.0235469 C16.2789482,14.9947858 16.2741311,14.9662503 16.2683506,14.9379403 C16.2673872,14.9332032 16.2667449,14.9285789 16.2657815,14.9238417 C16.2583953,14.8897796 16.2496175,14.8561685 16.239341,14.8231214 C16.2386987,14.8210912 16.2379494,14.8191738 16.2373071,14.8172564 C16.2279941,14.7879314 16.2173965,14.7589447 16.2058355,14.7306347 C16.2015536,14.7202582 16.1968436,14.7101072 16.1923476,14.6998434 C16.1836769,14.6801054 16.174685,14.6605929 16.1648367,14.6414189 C16.1587351,14.6293505 16.1523123,14.6175077 16.1457824,14.6056648 C16.1363624,14.5886338 16.126407,14.571941 16.1161306,14.5553611 C16.1087444,14.5434055 16.1013582,14.5314499 16.0935438,14.5197199 C16.0817687,14.5022376 16.0691372,14.4854321 16.0563987,14.4686266 C16.0493336,14.4592651 16.0426967,14.4495653 16.0352035,14.4404294 C16.0150787,14.4156159 15.9937765,14.3917047 15.9716179,14.3688086 C15.964874,14.3618157 15.9577018,14.3554995 15.9507438,14.3487322 C15.9334023,14.3317011 15.9156326,14.3151212 15.8971136,14.299218 C15.8891921,14.2924507 15.8809496,14.2859089 15.872814,14.2793672 C15.8534386,14.2636895 15.833528,14.2488014 15.8129751,14.2344773 C15.8055889,14.2294018 15.7983097,14.2242135 15.7907094,14.2192508 C15.7839655,14.2147393 15.7774357,14.2096638 15.7705847,14.2053778 L16.2473695,12.3324089 L20.7871018,13.6140267 L20.3107452,15.4872212 Z" id="Shape" stroke="#4C2E90"></path>
                <path d="M49.8935721,49.6829046 L44.9848376,30.3791226 C44.2430523,27.4621648 41.6930451,24.9959132 39.693329,24.4245224 C39.1067514,22.8121989 38.512895,21.2506305 37.9422662,19.8151606 C37.941517,19.8132432 37.9407677,19.8114386 37.9400184,19.8095212 C37.286755,18.1662933 36.6644261,16.689317 36.1184164,15.4918326 C36.2056538,15.3667492 36.278976,15.2315148 36.3350648,15.0889491 C36.5055791,14.6554997 36.5040806,14.1865216 36.3358141,13.7755173 L35.7644361,11.5288665 C35.7176597,11.0924846 35.502724,10.6926464 35.1573068,10.4104475 C34.7031373,10.0390322 34.0708536,9.90718145 33.5070754,10.06644 L28.3502228,11.5223247 C27.8811748,11.6548522 27.4887672,11.9725798 27.2453588,12.4169697 C27.0018435,12.8614725 26.9368704,13.3784988 27.062642,13.8727417 L27.6866836,16.3274888 C27.830545,16.8926762 28.1981194,17.3319906 28.6616014,17.571104 C28.7209014,18.3990905 28.806105,19.3377234 28.9141081,20.3582413 C28.9147503,20.3654598 28.9157137,20.3726783 28.9164629,20.3798969 C29.1324691,22.416985 29.4382816,24.7755228 29.8060701,27.2160585 C28.3456201,28.7646561 27.3074419,32.2440943 28.0491201,35.1608265 L32.9578546,54.4644957 C33.1918435,55.3842928 33.783559,56.1386278 34.6240349,56.5885445 C35.1334369,56.8613819 35.6966799,57 36.2694495,57 C36.5982755,57 36.9304198,56.9543203 37.257212,56.8619459 L47.3077066,54.024279 C48.2038431,53.7712925 48.9676785,53.1944878 49.4584557,52.4002253 C49.9729956,51.5676144 50.1274539,50.6027017 49.8935721,49.6829046 Z M29.8511338,15.502886 C29.8351849,15.500179 29.8190219,15.4979232 29.8028589,15.495893 C29.784448,15.4935245 29.7660372,15.4917198 29.7474123,15.4903664 C29.7347816,15.489464 29.7221509,15.4885617 29.7093062,15.4881106 C29.7025626,15.487885 29.6960332,15.4870955 29.6893968,15.4869827 L29.213177,13.6137774 L33.7526245,12.3324905 L34.2290583,14.2054702 C34.2222078,14.209869 34.2156784,14.2148318 34.2089349,14.2193433 C34.2013351,14.2244189 34.1938423,14.2296072 34.1863495,14.2347955 C34.1660119,14.2490069 34.1462096,14.2638951 34.1269424,14.2793473 C34.1187004,14.2861146 34.1103513,14.2926564 34.1022163,14.2995366 C34.0840195,14.3152143 34.066465,14.3315687 34.0493387,14.3483743 C34.042274,14.3553673 34.0347812,14.3620218 34.0278237,14.3691276 C34.0058805,14.391911 33.9846867,14.4157096 33.9646702,14.4402976 C33.9568563,14.4498847 33.9497917,14.4601486 33.9422989,14.470074 C33.9299894,14.4863157 33.9177868,14.5026701 33.9063336,14.5194758 C33.8981986,14.5314314 33.8907058,14.5437255 33.8829989,14.5561323 C33.8729372,14.5722612 33.8631966,14.5885028 33.8539912,14.6051957 C33.8472477,14.6172641 33.8407182,14.6295581 33.8344029,14.641965 C33.8247693,14.6608008 33.8159921,14.6798622 33.8074289,14.6991492 C33.8027191,14.7097514 33.7977953,14.7202408 33.7935137,14.7309558 C33.7822745,14.7587019 33.7719987,14.7870121 33.7627933,14.8156606 C33.761937,14.8182547 33.7608666,14.8208489 33.7601173,14.823443 C33.7498415,14.8563775 33.7411713,14.8898759 33.7337856,14.9237127 C33.7327152,14.928901 33.7319659,14.9340894 33.7310025,14.9392777 C33.7253294,14.9670238 33.7205126,14.9951084 33.7168733,15.0234185 C33.7156958,15.0330056 33.7149466,15.0427055 33.7138762,15.0522926 C33.7114143,15.0760911 33.7095946,15.1000025 33.7085242,15.1241394 C33.707989,15.1358695 33.7076679,15.1477124 33.7074538,15.1595552 C33.7072397,15.1813236 33.7077749,15.2030919 33.7087383,15.2250858 C33.7092735,15.2385078 33.7098087,15.2517041 33.710665,15.2651261 C33.7122706,15.2857665 33.7149466,15.3062942 33.7176226,15.3269346 C33.7194422,15.3409205 33.7207267,15.3550192 33.7231886,15.3688922 C33.7282195,15.3988942 33.7344278,15.4287834 33.7419206,15.4586726 C33.7496274,15.490028 33.759261,15.5211578 33.7697509,15.5520621 C33.7725339,15.5602957 33.7746747,15.5689805 33.7775648,15.5772141 C33.7788493,15.5807106 33.7805619,15.5840943 33.7818464,15.587478 C33.794263,15.6208636 33.807857,15.6534597 33.8230567,15.684928 C34.2669504,16.6101389 34.7819185,17.7835991 35.3352068,19.1233109 L30.9419756,19.1233109 C30.8496003,18.1598644 30.7818441,17.2924016 30.7429887,16.5540826 C30.7411691,16.5199074 30.7374227,16.4855067 30.7326059,16.4511059 C30.7319636,16.4464816 30.7317496,16.4418572 30.7311073,16.4373456 C30.7299299,16.4299015 30.7280032,16.4224574 30.7266117,16.4150133 C30.7209385,16.3818533 30.7144091,16.3489188 30.70606,16.3167738 C30.6982461,16.2865463 30.6893618,16.2569955 30.6793001,16.2280086 C30.6749115,16.2151506 30.6695595,16.2027438 30.6646357,16.1899986 C30.6570358,16.1702605 30.6492219,16.1505223 30.6406588,16.1314609 C30.6353068,16.1196181 30.6294196,16.1080008 30.6236394,16.0962707 C30.6140059,16.0767581 30.6040512,16.0574711 30.5935613,16.0386353 C30.5876741,16.0282587 30.5816799,16.0181077 30.5755786,16.0079566 C30.5635902,15.9882185 30.5509595,15.9689315 30.5377936,15.9500957 C30.5317994,15.9415237 30.5261263,15.9328389 30.519918,15.9244925 C30.5047183,15.9038521 30.4887694,15.8840011 30.4723923,15.8646014 C30.4672544,15.8586235 30.4625447,15.8524201 30.4574068,15.8465551 C30.4358918,15.8223054 30.4135205,15.798958 30.3901858,15.7768513 C30.3821578,15.7691816 30.3734876,15.7623014 30.3652456,15.7548574 C30.3500459,15.7413226 30.3349533,15.7279007 30.3190044,15.7153811 C30.3057315,15.7046661 30.2918163,15.6948534 30.2780082,15.6848152 C30.266769,15.6768071 30.2556369,15.6687991 30.2441836,15.6612422 C30.2281277,15.6505272 30.2116436,15.6402634 30.1949454,15.6304507 C30.1857399,15.6250368 30.1764275,15.6199613 30.167115,15.614773 C30.1483831,15.6045092 30.1295441,15.5944709 30.1102769,15.585335 C30.1043898,15.582628 30.0985026,15.5802595 30.0926154,15.5775525 C30.0278564,15.5484529 29.9601002,15.5261206 29.8897751,15.5110068 C29.8770374,15.5081871 29.8641926,15.5052546 29.8511338,15.502886 Z M31.4179812,28.7110811 L32.6465831,28.3642539 C33.21764,28.203078 33.5565278,27.5845412 33.403461,26.9829229 C33.2503942,26.3813046 32.6632813,26.023988 32.0925455,26.1853895 L31.8308334,26.2592666 C31.5788619,24.5489291 31.3595375,22.8931816 31.183029,21.3789848 L36.2414051,21.3789848 C36.7885921,22.7768958 37.354083,24.2821823 37.9102614,25.8278473 C38.0645056,26.2562212 38.4494204,26.543834 38.8842158,26.5553386 C39.7163426,26.5774453 41.5997064,27.974454 42.5278479,29.9051818 L29.9526074,33.4557901 C29.8453536,31.3950162 30.7205104,29.2982624 31.4179812,28.7110811 Z M34.0733155,50.1347387 L30.3941463,35.6663483 L43.193956,32.0523524 L46.8731253,46.5207428 L34.0733155,50.1347387 Z M47.664577,51.1694681 C47.462379,51.4965572 47.139012,51.7366856 46.7538831,51.8454146 L36.7033885,54.6830815 C36.3181526,54.7918104 35.9243534,54.7543643 35.5940289,54.5775106 C35.3022386,54.4212974 35.1005757,54.1738376 35.0259691,53.8805853 L34.6274602,52.3134903 L47.4272699,48.6994944 L47.8257788,50.2667022 C47.9002785,50.5599545 47.8431192,50.8806146 47.664577,51.1694681 Z" id="Shape" stroke="#4C2E90"></path>
                <path d="M25.5,0 C24.67155,0 24,0.478680181 24,1.06919853 L24,3.93080147 C24,4.52131982 24.67155,5 25.5,5 C26.3283,5 27,4.52131982 27,3.93080147 L27,1.06919853 C27,0.478680181 26.32845,0 25.5,0 Z" id="Shape"></path>
                <path d="M20.8771451,6.25607673 L19.6631752,3.57228059 C19.4137024,3.02065384 18.8665409,2.83573614 18.4412586,3.15937106 C18.0158869,3.48289019 17.8733821,4.19233962 18.1228549,4.74396637 L19.3368248,7.42776251 C19.5030805,7.7952821 19.8013942,8 20.1078332,8 C20.2613206,8 20.4168616,7.94870473 20.5587414,7.84067204 C20.9841131,7.51703712 21.1266179,6.80758768 20.8771451,6.25607673 Z" id="Shape" stroke="#4C2E90"></path>
                <path d="M31.5587715,3.15934611 C31.1333204,2.83570952 30.5862609,3.02074396 30.3367939,3.57225776 L29.122852,6.25606774 C28.873385,6.80769733 29.0158866,7.51715042 29.4412484,7.84067122 C29.5832142,7.94870447 29.7386623,8 29.8921462,8 C30.1985781,8 30.4968849,7.79528104 30.663226,7.42775956 L31.8771678,4.74394959 C32.1266349,4.19231999 31.984044,3.4828669 31.5587715,3.15934611 Z" id="Shape" stroke="#4C2E90"></path>
            </g>
        </g>
    </g>
</svg>