<?xml version="1.0" encoding="UTF-8"?>
<svg width="26px" height="26px" viewBox="0 0 26 26" version="1.1" xmlns="http://www.w3.org/2000/svg" xmlns:xlink="http://www.w3.org/1999/xlink">
    <!-- Generator: Sketch 51.2 (57519) - http://www.bohemiancoding.com/sketch -->
    <title>Partner-NavIcons-Brand</title>
    <desc>Created with Sketch.</desc>
    <defs></defs>
    <g id="Partner-NavIcons-Brand" stroke="none" stroke-width="1" fill="none" fill-rule="evenodd">
        <path d="M22.611507,11.8888846 L20.1840297,9.46149715 C20.6993232,9.33501253 21.1890298,9.0744261 21.5911939,8.67200345 C22.1792637,8.08422889 22.4746267,7.31075085 22.4744314,6.54051501 C22.4747048,5.7702401 22.1792637,4.99660581 21.5914673,4.40902656 C21.003632,3.82070512 20.22993,3.52562643 19.4596265,3.52586081 C18.6891278,3.52558737 17.9156602,3.82101762 17.3280592,4.40902656 C16.9256998,4.81090233 16.6650256,5.30059076 16.538341,5.81566987 L14.1113324,3.38879024 C13.8519864,3.12964912 13.5089652,2.99972699 13.1699286,3.00000043 C12.8306576,2.99972699 12.4872067,3.12968818 12.2282513,3.38879024 L8.65846393,6.95918768 C8.51396611,7.10368014 8.51396611,7.33739153 8.65846393,7.48188399 L9.08601963,7.90965825 C9.1735621,7.99719748 9.29833258,8.0351663 9.41986075,8.01098656 C9.53549025,7.98801777 9.65287763,7.97645525 9.7704994,7.97645525 C10.2305954,7.97696306 10.6869804,8.15079152 11.0390644,8.50184688 C11.3897031,8.85266786 11.5634989,9.30911404 11.5640067,9.76915399 C11.5635379,10.2299361 11.389664,10.6873589 11.0385956,11.0386486 C10.6874882,11.3894696 10.2305954,11.5635715 9.76999157,11.5638059 C9.30966115,11.5635324 8.85253398,11.3894696 8.50166095,11.0386486 C8.15031915,10.6870464 7.97648425,10.2306783 7.97624987,9.77036492 C7.97597642,9.65251314 7.98757844,9.53536448 8.0107434,9.42052051 C8.03488497,9.29923121 7.99671942,9.17372316 7.90964572,9.08641831 L7.48162124,8.65864405 C7.33716249,8.51438596 7.10312995,8.51438596 6.95863213,8.65891749 L3.38861036,12.2289243 C3.12945965,12.487792 2.99953271,12.8309958 3.00000148,13.1702933 C2.99949365,13.5093174 3.12945965,13.8527946 3.38880568,14.1116623 L5.81573609,16.5385029 C5.30044259,16.6652609 4.81097041,16.9258473 4.40857194,17.3284653 C3.82077562,17.915732 3.52533443,18.6894445 3.52588133,19.4597194 C3.5253735,20.2297208 3.82050217,21.0036286 4.40884538,21.5914813 C4.9966417,22.1795293 5.77038276,22.474647 6.5408815,22.4741392 C7.31091147,22.4746079 8.08437908,22.1789824 8.67174569,21.5912078 C9.0741051,21.1888633 9.33497463,20.6991749 9.46146393,20.1840958 L11.8883943,22.6112098 C12.1478185,22.8703509 12.4907615,23.000273 12.8300716,22.9999996 C13.1693426,23.000273 13.5123247,22.8703118 13.771202,22.6114051 L17.3412628,19.0414764 C17.4855263,18.897023 17.4855263,18.6629991 17.3412628,18.5185066 L16.9137071,18.0907324 C16.8264381,18.0034666 16.7016676,17.9654978 16.5801004,17.9894041 C16.4644709,18.0125682 16.3468491,18.0238963 16.228993,18.0238963 C15.7686626,18.0234276 15.3120042,17.8498335 14.9608967,17.4989734 C14.6097893,17.1476446 14.4359544,16.6910031 14.4357201,16.2304554 C14.4359935,15.770142 14.6100628,15.3130318 14.9608967,14.9616639 C15.3120042,14.6108429 15.7688969,14.4369754 16.2297352,14.4365067 C16.6900656,14.4369754 17.1469975,14.6110773 17.4983393,14.9618983 C17.8491732,15.3132271 18.0230472,15.7698686 18.0232816,16.230182 C18.023555,16.3475259 18.0116796,16.4651824 17.988749,16.5817842 C17.9650762,16.7030735 18.002812,16.8268628 18.0903545,16.9143629 L18.5179102,17.3421372 C18.5864676,17.4109264 18.681901,17.4503796 18.779522,17.4503796 C18.8769086,17.4503796 18.9720685,17.4109655 19.0411337,17.3421372 L22.6113899,13.7717398 C22.870814,13.5125986 23.0004675,13.1693949 22.9999987,12.8303708 C23.0003112,12.4909561 22.8703843,12.1477913 22.611507,11.8888846 Z M22.0882445,13.2489263 L18.7797954,16.5570185 L18.7445206,16.521745 C18.7556148,16.4248698 18.7632713,16.3274868 18.7632713,16.2295569 C18.7635448,15.5826026 18.5152148,14.9321717 18.0213284,14.4383426 C17.527442,13.9445135 16.8767526,13.6959584 16.2297743,13.6962318 C15.5825225,13.6959584 14.9318722,13.9442791 14.4379858,14.4381473 C13.943865,14.9322498 13.6955741,15.5829151 13.6958475,16.2301429 C13.6955741,16.8770972 13.943904,17.5278016 14.4379858,18.0216307 C14.9316378,18.5154988 15.5822881,18.7637415 16.2290711,18.7632727 C16.3267312,18.7632727 16.4241178,18.7561243 16.5214653,18.7447961 L16.5567401,18.7800696 L13.248291,22.0881619 C13.1334037,22.2030449 12.9837495,22.2597638 12.8301107,22.2602716 C12.6762375,22.2597638 12.5265832,22.203084 12.4114225,22.0881619 L9.44298665,19.1196015 C9.33622468,19.0128435 9.17645284,18.9815544 9.03738493,19.0404608 C8.89859046,19.0988984 8.80956356,19.2355002 8.81151676,19.3861255 C8.81202459,19.4147583 8.81249336,19.4398756 8.81249336,19.4608131 C8.81202459,20.0446424 8.59279731,20.6235888 8.14848314,21.0683553 C7.70342675,21.5131608 7.12375575,21.7343331 6.5408815,21.7345284 C5.95703065,21.734255 5.37685181,21.5136295 4.93175636,21.0685506 C4.48646559,20.6232763 4.26602733,20.0433533 4.26555856,19.4600319 C4.26602733,18.8766714 4.48701249,18.2967484 4.93156104,17.8519819 C5.37638305,17.4071764 5.95503838,17.1885041 6.53916268,17.1879963 C6.56213233,17.1879963 6.58529729,17.188465 6.60818881,17.1892463 C6.75983533,17.1936604 6.89866886,17.105418 6.95882745,16.9660818 C7.01898605,16.8267456 6.98793015,16.6652609 6.88089473,16.5580341 L3.91199011,13.5894738 C3.79710282,13.4743173 3.74038186,13.3246686 3.73987403,13.1710745 C3.7403428,13.0172071 3.79706376,12.8675583 3.91171666,12.7526753 L7.22040014,9.44434868 L7.2554015,9.47934874 C7.24430732,9.57673174 7.23665077,9.6741538 7.23665077,9.77173212 C7.23637732,10.4186865 7.48494168,11.0691174 7.97878903,11.5629465 C8.47244106,12.0568146 9.12309139,12.3053307 9.77034314,12.304862 C10.4175949,12.3053307 11.0682452,12.0568146 11.5618973,11.5629465 C12.0562524,11.0686096 12.3045433,10.4174365 12.3040355,9.77020867 C12.3045043,9.12325431 12.0557446,8.4733312 11.562366,7.97997088 C11.0680108,7.48586837 10.4175558,7.23735227 9.77081191,7.23786009 C9.67315186,7.23786009 9.57576526,7.24524291 9.47841772,7.25661012 L9.44314291,7.22133662 L12.7518264,3.91277561 C12.8667137,3.79812696 13.0163679,3.74117372 13.1702411,3.74066591 C13.3236455,3.74113466 13.4734951,3.79785352 13.5886558,3.91300999 L16.5573261,6.88157034 C16.6647912,6.98907055 16.8285476,7.01989092 16.9673811,6.95875799 C17.106449,6.89785944 17.1946946,6.75684354 17.1885616,6.60496825 C17.187585,6.58500728 17.1871162,6.56328849 17.1871162,6.53989 C17.1878584,5.95629514 17.4068123,5.37738778 17.8511264,4.93258225 C18.2961828,4.48777671 18.8761273,4.26660441 19.4594703,4.2664091 C20.042618,4.26668254 20.6227968,4.48730796 21.0678141,4.93258225 C21.5128315,5.37785654 21.7338166,5.95754514 21.734012,6.54086657 C21.7337385,7.12399268 21.5128315,7.70415004 21.0678141,8.14915089 C20.6227578,8.59348768 20.0440634,8.81215997 19.4602125,8.81262872 C19.4370475,8.81262872 19.4140779,8.81235528 19.3914208,8.81165216 C19.2397742,8.80723809 19.1009407,8.89548044 19.0407821,9.03481665 C18.9806235,9.17415285 19.011445,9.33563753 19.1187148,9.4428643 L22.0876195,12.411659 C22.2025068,12.5265421 22.2594621,12.6761908 22.2599699,12.8300583 C22.2601262,12.9841211 22.2031708,13.1337698 22.0882445,13.2489263 Z" id="Shape" stroke="#000000" stroke-width="0.6" fill="#000000" fill-rule="nonzero"></path>
    </g>
</svg>