<?xml version="1.0" encoding="UTF-8"?>
<svg width="50px" height="50px" viewBox="0 0 50 50" version="1.1" xmlns="http://www.w3.org/2000/svg" xmlns:xlink="http://www.w3.org/1999/xlink">
    <!-- Generator: Sketch 48.2 (47327) - http://www.bohemiancoding.com/sketch -->
    <title>ThumbDown-Light</title>
    <desc>Created with Sketch.</desc>
    <defs></defs>
    <g id="Page-1" stroke="none" stroke-width="1" fill="none" fill-rule="evenodd">
        <g id="ThumbDown-Light" fill="#C2C2C2" fill-rule="nonzero">
            <g id="thumbs-up-hand-symbol-(1)" transform="translate(25.500000, 26.000000) scale(-1, -1) translate(-25.500000, -26.000000) translate(5.000000, 6.000000)">
                <path d="M39.5758236,22.213699 C40.5251536,21.1200752 41,19.8267897 41,18.333569 C41,16.9794455 40.5073786,15.8077448 39.5254914,14.8176457 C38.5416089,13.8276379 37.3766211,13.3329077 36.0302556,13.3329077 L28.8584067,13.3329077 C28.9273302,13.0899207 28.996435,12.881594 29.0653585,12.7080188 C29.1336471,12.5344437 29.2295958,12.3432647 29.3499398,12.134938 C29.4703745,11.9265202 29.5569823,11.7701839 29.6085842,11.666203 C29.9191932,11.0762481 30.1569791,10.5898181 30.3211258,10.2081899 C30.4850004,9.82583196 30.6481495,9.30519768 30.8126589,8.64546611 C30.9768963,7.98609939 31.0585161,7.32609419 31.0585161,6.66636263 C31.0585161,6.24989169 31.0535283,5.91104159 31.0453663,5.65081566 C31.037295,5.3904073 30.9933109,4.99965796 30.9163162,4.47875004 C30.8381424,3.95811576 30.7343945,3.52404103 30.6052537,3.17698191 C30.4755688,2.82983158 30.2682542,2.43889981 29.983945,2.00518992 C29.6990009,1.57065914 29.3539301,1.21958672 28.9479165,0.950330869 C28.5419936,0.681257439 28.0243421,0.455600604 27.3943273,0.273451574 C26.7636776,0.0911201208 26.0520428,0 25.2575186,0 C24.8087906,0 24.4207333,0.1650013 24.09244,0.494912688 C23.7472786,0.842063018 23.4533563,1.27604654 23.2119428,1.79668082 C22.9701665,2.31758874 22.8017575,2.76899362 22.7067157,3.15107789 C22.6117645,3.53297974 22.5037542,4.06264394 22.3834102,4.73952324 C22.2275162,5.46903147 22.1115253,5.99386148 22.0333516,6.31501658 C21.9558127,6.63617168 21.8043624,7.05711198 21.5801798,7.57783747 C21.3555437,8.09892781 21.0882839,8.51530754 20.7774936,8.82797999 C20.2079681,9.40078715 19.3363584,10.4425118 18.1623016,11.952789 C17.3162661,13.063743 16.4446564,14.1140415 15.5471097,15.1036845 C14.6493816,16.0935099 13.9935204,16.6055703 13.5793449,16.6403218 C13.1481198,16.6749821 12.7769307,16.8529354 12.4661403,17.1742729 C12.1553499,17.495428 12,17.8731342 12,18.3070265 L12,34.9996124 C12,35.4510172 12.1638746,35.8371148 12.4918959,36.1582699 C12.8197358,36.4797898 13.2081557,36.6489869 13.6569744,36.6664082 C14.2610523,36.6838296 15.6247393,37.0653666 17.7480353,37.8125698 C19.0769885,38.263245 20.1168259,38.6066557 20.8677289,38.840704 C21.6184505,39.0747522 22.6678102,39.3266779 24.013178,39.5961162 C25.3598155,39.8650984 26.602433,40 27.7413932,40 L28.1816871,40 L30.1496333,40 L31.0815511,40 C33.3778813,39.9653397 35.0773888,39.2880043 36.1825221,37.9689061 C37.1833633,36.7708452 37.6060636,35.1996388 37.4512579,33.2551956 C38.1243499,32.6128854 38.5907623,31.7972737 38.8493159,30.8074483 C39.1423313,29.749032 39.1423313,28.7333026 38.8493159,27.7612635 C39.6432054,26.7022087 40.0143945,25.5129953 39.9622485,24.1935322 C39.964425,23.6374167 39.8352842,22.9778676 39.5758236,22.213699 Z" id="Shape"></path>
                <path d="M9.30782767,16 L1.69263541,16 C1.23400493,16 0.837334029,16.1649998 0.502437464,16.4949082 C0.167540898,16.8246341 0,17.2152887 0,17.6666895 L0,34.3337666 C0,34.7845289 0.167540898,35.1753659 0.502530079,35.5055479 C0.83770449,35.834909 1.23437539,36 1.69272802,36 L9.30782767,36 C9.76608768,36 10.1625734,35.834909 10.4976552,35.5055479 C10.8325517,35.1753659 11,34.7846201 11,34.3337666 L11,17.6666895 C11,17.2152887 10.8324591,16.8247253 10.4976552,16.4949082 C10.162666,16.1649086 9.7661803,16 9.30782767,16 Z M6.26680755,32.184756 C5.93191099,32.5059082 5.5353327,32.6664386 5.07698007,32.6664386 C4.60093794,32.6664386 4.19982151,32.5059082 3.87390861,32.184756 C3.54781049,31.8636038 3.38480774,31.4687536 3.38480774,30.9999316 C3.38480774,30.548622 3.54771788,30.1578763 3.87390861,29.8281503 C4.19991412,29.4982419 4.60093794,29.3330597 5.07698007,29.3330597 C5.5353327,29.3330597 5.93191099,29.4982419 6.26680755,29.8281503 C6.60179673,30.157785 6.76933763,30.5485308 6.76933763,30.9999316 C6.76933763,31.4687536 6.6021672,31.8635126 6.26680755,32.184756 Z" id="Shape"></path>
            </g>
        </g>
    </g>
</svg>